<?xml version="1.0" standalone="no"?>
<!DOCTYPE svg PUBLIC "-//W3C//DTD SVG 1.1//EN" "http://www.w3.org/Graphics/SVG/1.1/DTD/svg11.dtd" >
<!--
2018-7-27: Created with FontForge (http://fontforge.org)
-->
<svg xmlns="http://www.w3.org/2000/svg" xmlns:xlink="http://www.w3.org/1999/xlink" version="1.1">
<metadata>
Created by FontForge 20160405 at Fri Jul 27 10:14:14 2018
 By Apache
Copyright (c) 2018, Apache
</metadata>
<defs>
<font id="Flaticon" horiz-adv-x="512" >
  <font-face 
    font-family="Flaticon"
    font-weight="400"
    font-stretch="normal"
    units-per-em="512"
    panose-1="2 0 5 3 0 0 0 0 0 0"
    ascent="448"
    descent="-64"
    bbox="-0.00192983 -64.002 512.009 448"
    underline-thickness="25.6"
    underline-position="-51.2"
    unicode-range="U+0020-F11C"
  />
    <missing-glyph />
    <glyph glyph-name="space" unicode=" " horiz-adv-x="200" 
 />
    <glyph glyph-name="uniF109" unicode="&#xf109;" 
d="M362.164 115.397c57.2041 -35.5977 95.3682 -99.0342 95.3682 -171.228c0 -4.5127 -3.6582 -8.16992 -8.1709 -8.16992h-299.574c-4.51172 0 -8.16992 3.65723 -8.16992 8.16992c0 4.51367 3.6582 8.1709 8.16992 8.1709h291.227
c-2.66211 61.0596 -35.0371 114.53 -82.9844 146.304l-96.251 -96.252c-0.0195312 -0.0195312 -0.0429688 -0.0361328 -0.0625 -0.0556641c-0.169922 -0.166992 -0.345703 -0.328125 -0.529297 -0.479492c-0.0585938 -0.0478516 -0.12207 -0.0898438 -0.181641 -0.135742
c-0.150391 -0.117188 -0.301758 -0.234375 -0.460938 -0.341797c-0.0537109 -0.0341797 -0.110352 -0.0654297 -0.165039 -0.0986328c-0.170898 -0.110352 -0.342773 -0.217773 -0.522461 -0.313477c-0.0390625 -0.0214844 -0.0820312 -0.0380859 -0.12207 -0.0595703
c-0.197266 -0.100586 -0.395508 -0.198242 -0.601562 -0.28418c-0.0292969 -0.0107422 -0.0585938 -0.0195312 -0.0878906 -0.03125c-0.216797 -0.0869141 -0.436523 -0.168945 -0.664062 -0.237305c-0.0283203 -0.00878906 -0.0585938 -0.0146484 -0.0869141 -0.0234375
c-0.225586 -0.0654297 -0.453125 -0.125977 -0.686523 -0.171875c-0.0634766 -0.0117188 -0.128906 -0.0185547 -0.193359 -0.0292969c-0.197266 -0.0351562 -0.395508 -0.0683594 -0.597656 -0.0898438c-0.270508 -0.0263672 -0.542969 -0.0410156 -0.816406 -0.0410156
s-0.545898 0.0146484 -0.816406 0.0410156c-0.202148 0.0214844 -0.399414 0.0546875 -0.597656 0.0898438c-0.0644531 0.0107422 -0.129883 0.0166016 -0.193359 0.0292969c-0.233398 0.0458984 -0.460938 0.105469 -0.686523 0.171875
c-0.0283203 0.00878906 -0.0585938 0.0146484 -0.0869141 0.0234375c-0.225586 0.0683594 -0.446289 0.150391 -0.664062 0.237305c-0.0292969 0.0107422 -0.0595703 0.0195312 -0.0878906 0.03125c-0.206055 0.0859375 -0.404297 0.183594 -0.601562 0.28418
c-0.0400391 0.0214844 -0.0820312 0.0371094 -0.12207 0.0595703c-0.179688 0.0966797 -0.351562 0.203125 -0.522461 0.313477c-0.0546875 0.0332031 -0.111328 0.0634766 -0.165039 0.0986328c-0.15918 0.107422 -0.30957 0.224609 -0.460938 0.341797
c-0.0595703 0.0458984 -0.123047 0.0878906 -0.181641 0.135742c-0.183594 0.151367 -0.359375 0.3125 -0.529297 0.479492c-0.0205078 0.0195312 -0.0429688 0.0361328 -0.0625 0.0556641l-96.251 96.252c-47.9473 -31.7734 -80.3223 -85.2441 -82.9844 -146.304h46.1201
c4.51172 0 8.16992 -3.65723 8.16992 -8.1709c0 -4.5127 -3.6582 -8.16992 -8.16992 -8.16992h-54.4678c-4.5127 0 -8.1709 3.65723 -8.1709 8.16992c0 72.1934 38.1641 135.63 95.3682 171.228c0.574219 0.477539 1.20117 0.859375 1.85645 1.15527
c30.4482 18.4922 66.1562 29.1494 104.308 29.1494s73.8594 -10.6572 104.308 -29.1494c0.655273 -0.295898 1.28223 -0.677734 1.85645 -1.15527zM264.17 27.8945l79.4072 79.4072c-23.835 12.8477 -50.7871 20.623 -79.4072 21.8711v-24.3223
c0 -4.5127 -3.6582 -8.16992 -8.16992 -8.16992s-8.16992 3.65723 -8.16992 8.16992v24.3223c-28.6211 -1.24805 -55.5723 -9.02344 -79.4072 -21.8711l79.4072 -79.4072v44.2754c0 4.51367 3.6582 8.1709 8.16992 8.1709s8.16992 -3.65723 8.16992 -8.1709v-44.2754z
M62.6387 420.766c-4.5127 0 -8.1709 3.65723 -8.1709 8.1709c0 4.5127 3.6582 8.16992 8.1709 8.16992h356.766v2.72363c0 4.5127 3.6582 8.16992 8.16992 8.16992c4.5127 0 8.1709 -3.65723 8.1709 -8.16992v-2.72363h13.6162c4.5127 0 8.1709 -3.65723 8.1709 -8.16992
c0 -4.51367 -3.6582 -8.1709 -8.1709 -8.1709h-13.6162v-141.354l11.8818 -28.6924c1.72754 -4.16895 -0.251953 -8.94824 -4.4209 -10.6748c-1.02246 -0.422852 -2.08105 -0.624023 -3.12402 -0.624023c-3.20508 0 -6.24805 1.89844 -7.55078 5.0459l-4.95801 11.9697
l-4.95801 -11.9697c-1.72656 -4.16895 -6.50391 -6.15137 -10.6738 -4.42188c-4.16895 1.72656 -6.14844 6.50586 -4.42188 10.6748l11.8848 28.6924v141.354h-246.195v-97.8613c9.81836 3.60547 20.3486 5.48047 31.0361 5.48047
c18.5625 0 36.7012 -5.85059 51.7549 -16.5898c15.0537 10.7393 33.1914 16.5898 51.7549 16.5898c10.6875 0 21.2178 -1.87402 31.0361 -5.48047v73.3506c0 4.51367 3.6582 8.1709 8.1709 8.1709c4.51172 0 8.16992 -3.65723 8.16992 -8.1709v-84.7061
c3.83203 -11.084 5.71875 -22.1455 5.71875 -33.7617c0 -57.8145 -47.0361 -104.851 -104.851 -104.851s-104.851 47.0361 -104.851 104.851c0 11.6162 1.88672 22.6777 5.71875 33.7617v109.217h-94.2295zM204.245 312.044c-11.4219 0 -22.5947 -2.60742 -32.5166 -7.55176
c-2.84082 -8.76953 -4.23926 -17.5371 -4.23926 -26.7051c0 -48.8057 39.7061 -88.5107 88.5107 -88.5107s88.5107 39.7051 88.5107 88.5107c0 9.16699 -1.39844 17.9355 -4.23926 26.7051c-9.92188 4.94336 -21.0947 7.55176 -32.5166 7.55176
c-16.9551 0 -33.4795 -5.98047 -46.5293 -16.8398c-1.51367 -1.25977 -3.37012 -1.88867 -5.22559 -1.88867s-3.71191 0.628906 -5.22559 1.88867c-13.0508 10.8594 -29.5752 16.8398 -46.5293 16.8398z" />
    <glyph glyph-name="uniF10A" unicode="&#xf10a;" 
d="M332.066 448l124.467 -124.467v-387.533h-401.066v512h276.6zM337.066 418.867v-90.334h90.334zM72.5332 -46.9336h366.934v358.4h-119.467v119.467h-247.467v-477.867zM294.4 132.267h-145.067c-4.70996 0 -8.5332 3.81445 -8.5332 8.5332s3.82324 8.5332 8.5332 8.5332
h145.067c4.70996 0 8.5332 -3.81445 8.5332 -8.5332s-3.82324 -8.5332 -8.5332 -8.5332zM379.733 192c4.70996 0 8.5332 -3.81445 8.5332 -8.5332s-3.82324 -8.5332 -8.5332 -8.5332h-59.7334c-4.70996 0 -8.5332 3.81445 -8.5332 8.5332s3.82324 8.5332 8.5332 8.5332
h59.7334zM183.467 183.467c0 4.71875 3.82324 8.5332 8.5332 8.5332h85.333c4.71094 0 8.5332 -3.81445 8.5332 -8.5332s-3.82227 -8.5332 -8.5332 -8.5332h-85.333c-4.70996 0 -8.5332 3.81445 -8.5332 8.5332zM143.274 189.525c3.07227 3.07227 8.95996 3.15723 12.1172 0
c1.53613 -1.61328 2.47461 -3.83105 2.47461 -6.05859c0 -2.21875 -0.938477 -4.4375 -2.47461 -6.05859c-1.62109 -1.53613 -3.75391 -2.47461 -6.05859 -2.47461c-2.30371 0 -4.52246 0.947266 -6.05859 2.55957c-1.53613 1.53613 -2.47461 3.75488 -2.47461 5.97363
c0 2.22754 0.938477 4.44531 2.47461 6.05859zM331.008 146.858c3.24316 3.15723 8.875 3.15723 12.1172 0c1.53613 -1.6123 2.47461 -3.83105 2.47461 -6.05859c0 -2.30371 -0.852539 -4.4375 -2.47461 -6.05859c-1.62109 -1.53613 -3.83984 -2.47461 -6.05859 -2.47461
s-4.4375 0.938477 -6.05859 2.47461c-1.62109 1.62109 -2.47461 3.75488 -2.47461 6.05859c0 2.3125 0.938477 4.44629 2.47461 6.05859zM373.675 146.858c3.24219 3.15723 8.875 3.15723 12.1172 0c1.53613 -1.6123 2.47461 -3.83105 2.47461 -6.05859
c0 -2.21875 -0.853516 -4.35156 -2.47461 -5.97266c-1.62109 -1.62207 -3.83984 -2.56055 -6.05859 -2.56055s-4.4375 0.938477 -6.05859 2.47461c-1.62109 1.62109 -2.47461 3.75488 -2.47461 6.05859c0 2.3125 0.938477 4.44629 2.47461 6.05859zM196.48 105.25
c9.73633 5.06934 18.3633 -9.66797 8.60938 -14.7451c-18.543 -9.65137 -19.4131 -31.6338 -20.0361 -50.1162c-0.264648 -7.76562 -8.95117 -10.7354 -14.5664 -6.0332c-7.97852 6.68945 -15.9658 13.3799 -23.9443 20.0615
c-8.43066 7.07422 3.70312 19.0811 12.0664 12.0752c3.53223 -2.96191 7.06543 -5.91406 10.5977 -8.875c2.2959 19.2939 8.58496 37.9053 27.2734 47.6328zM311.083 71.6113c7.81641 -0.494141 11.8779 -3.71191 16.29 -9.74512
c6.49316 -8.88281 -8.32031 -17.3906 -14.7373 -8.60938c-1.49316 2.04785 -29.082 -9.05371 -35.8398 -7.68848c-6.53711 1.32227 -11.5967 4.65918 -15.6758 9.22461c-18.1162 -9.83105 -38.6475 -15.1045 -54.6045 2.24414
c-7.43262 8.07227 4.61621 20.1641 12.0654 12.0654c12.7061 -13.8154 28.502 -3.14844 40.585 4.2666c3.88281 2.38086 9.45508 0.896484 11.6738 -3.06348c9.59082 -17.083 27.8008 2.09082 40.2432 1.30566zM244.616 243.516
c-15.9912 -11.375 -34.7646 -17.3818 -54.3057 -17.3818c-19.6094 0 -38.4424 6.0498 -54.4941 17.501l-5.59766 4.00293l2.73047 6.32324c2.4834 5.75098 6.5625 10.2998 11.793 13.1494l18.8076 9.27539c-8.25977 5.30859 -14.2168 13.2949 -17.7744 23.834
c-5.83691 3.55859 -9.51465 9.88184 -9.51465 16.9297v5.69238c0 5.69141 2.46582 11.0244 6.63867 14.7627c0.819336 5.23926 2.16699 10.1543 4.01855 14.6689c0.862305 2.10742 1.5957 3.68555 2.19336 4.96582c0.392578 0.853516 0.887695 1.91211 0.956055 2.20996
c0.0253906 0.273438 -0.0175781 1.30566 -0.734375 4.88965c-0.554688 2.79102 -0.920898 5.35059 -1.17773 7.54395c-0.494141 4.35156 1.87793 8.39648 5.92285 10.0605c4.05273 1.65527 8.59277 0.452148 11.2979 -2.98633
c0.648438 -0.828125 1.97168 -2.17578 4.55664 -3.91699c5.56348 -3.7373 12.0664 -4.10449 16.5293 -3.7373c1.2627 0.102539 2.54297 0.15332 3.84863 0.15332c33.2461 0 44.2285 -17.5186 47.2744 -33.7148c4.2666 -3.72949 6.77539 -9.11426 6.77539 -14.8906v-5.69238
c0 -7.04785 -3.67773 -13.3711 -9.51465 -16.9297c-3.5752 -10.582 -9.55762 -18.5859 -17.877 -23.9023l18.0908 -9.23242c5.43555 -2.73145 9.71094 -7.25391 12.373 -13.0732l2.93555 -6.41699zM153.736 252.527c22.2891 -12.1777 50.4062 -12.2539 72.7725 -0.230469
l-20.6084 10.5215c-4.35156 2.22656 -7.04004 6.62988 -7.04004 11.4941v12.1855l5.1543 2.22754c7.77441 3.33594 12.8516 9.82129 15.5225 19.8057l1.2207 4.54785l4.49707 1.39941c0.980469 0.307617 2.04785 1.27148 2.04785 2.6709v5.69238
c0 1.21973 -0.819336 2.07324 -1.5791 2.47461l-3.97656 2.09082l-0.520508 4.46289c-1.30566 11.127 -5.99902 22.5107 -30.9072 22.5107c-0.844727 0 -1.67285 -0.0341797 -2.4834 -0.102539c-7.51855 -0.571289 -14.5918 0.452148 -20.8213 3.05469
c-0.290039 -2.36328 -1.09277 -4.46289 -2.41504 -7.2959c-0.511719 -1.10059 -1.14355 -2.44043 -1.87793 -4.24121c-1.68945 -4.1123 -2.80664 -8.76367 -3.33594 -13.8408l-0.469727 -4.51367l-4.00195 -2.13379
c-0.759766 -0.401367 -1.57031 -1.25391 -1.57031 -2.46582v-5.69238c0 -1.39941 1.05859 -2.36328 2.04785 -2.6709l4.49707 -1.39941l1.2207 -4.54785c2.6709 -9.98438 7.73926 -16.4609 15.5225 -19.8057l5.15332 -2.22754v-12.1348
c0 -4.94043 -2.75586 -9.36914 -7.18457 -11.5625z" />
    <glyph glyph-name="uniF102" unicode="&#xf102;" 
d="M286.579 -0.194336l70.0381 99.46v-139.916c0 -12.5908 -9.72754 -23.3379 -22.3301 -23.3379h-296.845c-12.5801 0 -22.7773 10.7354 -22.7773 23.3379v391.299c0 12.5908 10.1855 22.7764 22.7773 22.7764h55.8877v-43.7549
c0 -20.6455 16.3037 -36.9951 36.9727 -36.9951h111.204c20.623 0 37.5107 16.3379 37.5107 36.9951v43.7549h55.293c12.5684 0 22.3184 -10.1738 22.3184 -22.7764v-76.6836l-72.2266 -103.562l-192.607 -0.493164c-9.2002 0 -16.6582 -7.58398 -16.6582 -16.7842
s7.45801 -16.7852 16.6582 -16.7852h168.856l-30.8428 -44.0527h-138.014c-9.2002 0 -16.6582 -7.58496 -16.6582 -16.7969c0 -9.17676 7.45801 -16.7617 16.6582 -16.7617h114.022l-1.17969 -1.69531c-3.84961 -5.4541 -5.67188 -12.2363 -5.00684 -19.0078
l2.80664 -33.0078c0.699219 -8.37598 5.12109 -16.1094 12.168 -21.0127c4.7998 -3.37988 10.4941 -5.17871 16.3838 -5.17871c2.6123 0 5.20117 0.366211 7.70996 1.07715l31.9658 8.73047c6.42773 1.77539 12.0645 5.72852 15.9141 11.1709zM91.7949 247.545
c-9.2002 0 -16.6582 -7.57324 -16.6582 -16.7734s7.45801 -16.7852 16.6582 -16.7852h188.174c9.17676 0 16.6475 7.58496 16.6475 16.7852s-7.4707 16.7734 -16.6475 16.7734h-188.174zM130.612 314.684c-8.43262 0 -15.25 6.83984 -15.25 15.2725v63.8857
c0 8.43262 6.81738 15.2607 15.25 15.2607h16.1543c0.125977 21.4941 17.5645 38.8975 39.1035 38.8975c21.5283 0 38.9893 -17.415 39.1035 -38.8975h16.7393c8.40918 0 15.25 -6.82812 15.25 -15.2607v-63.8965c0 -8.43262 -6.84082 -15.2617 -15.25 -15.2617h-111.101z
M185.882 426.334c-9.57812 0 -17.3467 -7.69922 -17.4609 -17.2432h34.8877c-0.103516 9.54395 -7.86035 17.2432 -17.4268 17.2432zM497.175 345.137c0.492188 -2.81836 -0.161133 -5.7168 -1.78809 -8.06543l-197.075 -282.558l-45.5195 31.748l197.053 282.569
c2.07324 3.0127 5.45312 4.61719 8.84473 4.61719c2.13086 0 4.29688 -0.630859 6.17578 -1.94824l27.8184 -19.3857c2.35938 -1.64941 3.97559 -4.13574 4.49121 -6.97754zM221.754 40.123c-0.160156 1.50098 0.241211 3.00195 1.08887 4.22754l12.0645 17.3008
l45.5537 -31.7598l-12.0645 -17.2998c-0.870117 -1.22656 -2.13086 -2.12012 -3.58594 -2.52051l-32.1377 -8.7998c-0.549805 -0.160156 -1.12207 -0.240234 -1.68359 -0.240234c-1.2832 0 -2.57812 0.435547 -3.67773 1.19141
c-1.54688 1.09961 -2.56641 2.80664 -2.7041 4.7207z" />
    <glyph glyph-name="uniF116" unicode="&#xf116;" 
d="M414.007 299.25c-5.52148 0 -10 4.47656 -10 10v108.75c0 5.51367 -4.48535 10 -10 10h-364c-5.51367 0 -10 -4.48633 -10 -10v-452c0 -5.51367 4.48633 -10 10 -10h364c5.51465 0 10 4.48633 10 10v73.6719c0 5.52344 4.47852 10 10 10c5.52246 0 10 -4.47656 10 -10
v-73.6719c0 -16.542 -13.458 -30 -30 -30h-364c-16.542 0 -30 13.458 -30 30v452c0 16.542 13.458 30 30 30h364c16.542 0 30 -13.458 30 -30v-108.75c0 -5.52344 -4.47754 -10 -10 -10zM212.007 394c50.7295 0 92 -41.2715 92 -92
c0 -26.3174 -11.1094 -50.085 -28.8838 -66.8691c-0.333008 -0.354492 -0.6875 -0.692383 -1.07422 -1c-16.3711 -14.9775 -38.1582 -24.1299 -62.043 -24.1299s-45.6719 9.15137 -62.043 24.1299c-0.386719 0.307617 -0.741211 0.644531 -1.07422 1
c-17.7715 16.7842 -28.8818 40.5518 -28.8818 66.8691c0 50.7285 41.2715 92 92 92zM212.007 230c16.3291 0 31.3984 5.47168 43.4912 14.668c-8.78906 15.585 -25.1904 25.332 -43.4912 25.332s-34.7021 -9.74707 -43.4912 -25.332
c12.0928 -9.19629 27.1621 -14.668 43.4912 -14.668zM196.007 306c0 -8.82227 7.17773 -16 16 -16s16 7.17773 16 16v6.5c0 8.82227 -7.17773 16 -16 16s-16 -7.17773 -16 -16v-6.5zM269.947 259.317c8.8291 11.9521 14.0596 26.7158 14.0596 42.6826
c0 39.7012 -32.2988 72 -72 72s-72 -32.2988 -72 -72c0 -15.9668 5.23145 -30.7305 14.0605 -42.6826c7.375 10.9375 17.5957 19.4443 29.4629 24.6963c-4.70996 6.08691 -7.52344 13.7119 -7.52344 21.9863v6.5c0 19.8506 16.1494 36 36 36c19.8516 0 36 -16.1494 36 -36
v-6.5c0 -8.27441 -2.8125 -15.8994 -7.52246 -21.9863c11.8662 -5.25195 22.0879 -13.7588 29.4629 -24.6963zM266.007 10c5.52246 0 10 -4.47656 10 -10s-4.47754 -10 -10 -10h-54c-5.52148 0 -10 4.47656 -10 10s4.47852 10 10 10h54zM266.007 66
c5.52246 0 10 -4.47656 10 -10s-4.47754 -10 -10 -10h-142c-5.52148 0 -10 4.47656 -10 10s4.47852 10 10 10h142zM266.007 122c5.52246 0 10 -4.47656 10 -10s-4.47754 -10 -10 -10h-142c-5.52148 0 -10 4.47656 -10 10s4.47852 10 10 10h142zM88.3662 175.07
c1.86035 -1.86035 2.93066 -4.44043 2.93066 -7.07031s-1.07129 -5.20996 -2.93066 -7.07031c-1.86914 -1.85938 -4.43945 -2.92969 -7.0791 -2.92969c-2.63086 0 -5.2002 1.07031 -7.07031 2.92969c-1.86035 1.86035 -2.92969 4.44043 -2.92969 7.07031
s1.07031 5.20996 2.92969 7.07031c1.85938 1.85938 4.43945 2.92969 7.07031 2.92969c2.63965 0 5.21973 -1.07031 7.0791 -2.92969zM88.3662 119.07c1.86035 -1.86035 2.93066 -4.44043 2.93066 -7.07031s-1.07129 -5.20996 -2.93066 -7.07031
c-1.86914 -1.85938 -4.43945 -2.92969 -7.0791 -2.92969c-2.63086 0 -5.2002 1.07031 -7.07031 2.92969c-1.86035 1.86035 -2.92969 4.44043 -2.92969 7.07031s1.07031 5.20996 2.92969 7.07031c1.87012 1.85938 4.43945 2.92969 7.07031 2.92969
c2.63965 0 5.20996 -1.07031 7.0791 -2.92969zM88.3662 63.0703c1.86035 -1.86035 2.93066 -4.44043 2.93066 -7.07031s-1.07129 -5.20996 -2.93066 -7.07031c-1.85938 -1.85938 -4.43945 -2.92969 -7.0791 -2.92969c-2.63086 0 -5.21094 1.07031 -7.07031 2.92969
c-1.86035 1.86035 -2.92969 4.44043 -2.92969 7.07031s1.07031 5.20996 2.92969 7.07031c1.87012 1.85938 4.43945 2.92969 7.07031 2.92969c2.63965 0 5.20996 -1.07031 7.0791 -2.92969zM266.007 178c5.52246 0 10 -4.47656 10 -10s-4.47754 -10 -10 -10h-142
c-5.52148 0 -10 4.47656 -10 10s4.47852 10 10 10h142zM491.002 317.68c20.0557 -11.5801 26.9521 -37.3174 15.3721 -57.374l-125.841 -217.963c-0.689453 -1.19434 -1.61914 -2.2334 -2.73047 -3.05176l-64.2842 -47.3438
c-1.75488 -1.29297 -3.83887 -1.94824 -5.93066 -1.94824c-1.7207 0 -3.44629 0.444336 -4.99902 1.33984c-3.43945 1.9873 -5.37793 5.82227 -4.9375 9.77051l8.85742 79.3438c0.15332 1.37109 0.588867 2.69629 1.27832 3.89062l125.842 217.963
c5.6084 9.71582 14.666 16.665 25.502 19.5693c10.8379 2.90332 22.1562 1.41309 31.8711 -4.19629zM320.063 21.6064l33.5674 24.7217l-28.9414 16.71zM368.213 61.0039l100.985 174.91l-38.1055 22l-100.984 -174.91zM489.054 270.307
c2.93848 5.08984 3.71875 11.0186 2.19727 16.6943c-1.52051 5.67578 -5.16113 10.4199 -10.25 13.3584c-5.08789 2.9375 -11.0156 3.71973 -16.6943 2.19727c-5.67578 -1.52051 -10.4199 -5.16016 -13.3574 -10.25l-9.85742 -17.0723l38.1055 -22z" />
    <glyph glyph-name="uniF112" unicode="&#xf112;" 
d="M503.465 174.932c4.71289 0 8.5332 -3.82031 8.5332 -8.5332v-34.1328c0 -4.71289 -3.82129 -8.5332 -8.5332 -8.5332h-25.5996v-179.199c0 -4.71289 -3.82129 -8.5332 -8.53418 -8.5332h-426.664c-4.71191 0 -8.5332 3.82031 -8.5332 8.5332v179.199h-25.5996
c-4.71191 0 -8.5332 3.82031 -8.5332 8.5332v34.1328c0 4.71289 3.82129 8.5332 8.5332 8.5332h25.5996v25.5996c0 4.71289 3.82129 8.53418 8.5332 8.53418h8.53418v17.0664h-8.53418c-4.71191 0 -8.5332 3.82031 -8.5332 8.5332v34.1328
c0 4.71289 3.82129 8.5332 8.5332 8.5332h85.333c4.71289 0 8.5332 -3.82031 8.5332 -8.5332v-25.5996h8.5332c4.71289 0 8.53418 -3.82129 8.53418 -8.5332v-34.1338c0 -4.71191 -3.82129 -8.5332 -8.53418 -8.5332h-8.5332v-17.0664h42.667v170.666
c0 4.71191 3.82031 8.5332 8.5332 8.5332h52.1377c10.668 17.2393 30.0439 27.1094 50.2617 25.5996c20.2168 1.50977 39.5928 -8.36035 50.2607 -25.5996h52.1387c4.71191 0 8.5332 -3.82129 8.5332 -8.5332v-170.666h63.3164l28.7314 50.2871l-32.8867 39.4658
l-9.66797 -9.66797c6.42285 -4.7959 10.2168 -12.335 10.2393 -20.3516v-17.0664c0 -4.71289 -3.82031 -8.5332 -8.5332 -8.5332h-34.1328c-4.71289 0 -8.5332 3.82031 -8.5332 8.5332v17.0664c0.0439453 12.585 9.22949 23.2734 21.666 25.207l23.501 23.501
c1.71191 1.66699 4.02832 2.56738 6.41699 2.49121c2.40137 -0.119141 4.64258 -1.24805 6.16895 -3.10547l42.667 -51.2002c2.2793 -2.7373 2.61914 -6.60156 0.852539 -9.69336l-26.8369 -46.9336h19.4307zM443.731 226.132v8.5332
c0 4.71191 -3.82031 8.5332 -8.5332 8.5332c-4.71191 0 -8.5332 -3.82129 -8.5332 -8.5332v-8.5332h17.0664zM347.041 337.064c1.96387 -8.38965 2.91211 -16.9844 2.82422 -25.6006c-0.999023 -16.9092 -9.19043 -32.583 -22.502 -43.0586
c22.6289 -2.78809 39.6143 -22.0332 39.5684 -44.834v-48.6396h17.0674v162.133h-36.958zM267.042 211.565c-2.41797 2.41406 -3.16309 6.03613 -1.89453 9.20703l12.3818 30.959h-18.9697c-15.5518 0 -28.1602 -12.6084 -28.1602 -28.1602v-48.6396h119.466v48.6396
c0 15.5518 -12.6074 28.1602 -28.1592 28.1602h-18.9697l12.3984 -30.959c1.26855 -3.1709 0.523438 -6.79297 -1.89453 -9.20703l-17.0664 -17.0664c-3.33203 -3.33203 -8.7334 -3.33203 -12.0654 0zM283.085 219.654l7.04883 -7.05664l7.04883 7.05664l-7.04883 17.6387z
M332.399 306.865l-30.498 18.3037c-12.2881 -16.1621 -38.6387 -20.5908 -53.248 -21.7939c6.61523 -18.1377 22.4482 -31.3359 41.4805 -34.5771c13.0986 0 38.8438 17.1777 42.2656 38.0674zM290.133 362.664c-26.4521 0 -39.9102 -13.5762 -42.2227 -42.1719
c15.0352 1.42578 38.3486 6.32324 42.666 19.2773c0.196289 0.589844 0.457031 1.15527 0.776367 1.68848c2.4248 4.04102 7.66602 5.35254 11.708 2.92773l28.4326 -17.0664c-3.81445 23.8926 -17.1436 35.3447 -41.3604 35.3447zM196.267 337.064v-162.133h17.0664
v48.6396c-0.0332031 22.792 16.9492 42.0215 39.5693 44.8086c-13.3184 10.4805 -21.5107 26.165 -22.5029 43.084c-0.0859375 8.61621 0.862305 17.2109 2.8252 25.6006h-36.958zM136.533 226.132h-68.2656v-17.0664h68.2656v17.0664zM51.2021 260.265v-17.0664h68.2656
v17.0664h-68.2656zM51.2021 191.998v-17.0664h68.2656v17.0664h-68.2656zM460.798 -46.9336v170.666h-409.597v-170.666h409.597zM494.932 140.799v17.0664h-477.864v-17.0664h477.864zM110.935 413.863c4.71289 0 8.5332 -3.82031 8.5332 -8.5332v-68.2656
c0 -4.71289 -3.82031 -8.5332 -8.5332 -8.5332h-102.399c-4.71191 0 -8.5332 3.82031 -8.5332 8.5332v68.2656c0 4.71289 3.82129 8.5332 8.5332 8.5332h5.53809l40.3281 32.2646c3.11816 2.49609 7.54883 2.49609 10.667 0l40.3281 -32.2646h5.53809zM59.7354 428.532
l-18.3555 -14.6689h36.6934zM102.401 345.598v51.1992h-85.333v-51.1992h85.333z" />
    <glyph glyph-name="uniF10D" unicode="&#xf10d;" 
d="M214.686 45.1709c24.8281 0 45.0283 -20.2002 45.0293 -45.0283c0 -24.8291 -20.2002 -45.0293 -45.0293 -45.0293s-45.0293 20.2002 -45.0293 45.0293c0 24.8281 20.2002 45.0283 45.0293 45.0283zM214.686 -19.7432c10.9648 0 19.8867 8.91992 19.8867 19.8877
c0 10.9648 -8.92188 19.8867 -19.8867 19.8867s-19.8867 -8.9209 -19.8867 -19.8867s8.9209 -19.8877 19.8867 -19.8877zM372.631 45.1709c24.8281 0 45.0283 -20.2002 45.0293 -45.0283c0 -24.8291 -20.2002 -45.0293 -45.0293 -45.0293s-45.0293 20.2002 -45.0293 45.0293
c0 24.8281 20.2002 45.0283 45.0293 45.0283zM372.631 -19.7432c10.9648 0 19.8867 8.91992 19.8867 19.8877c0 10.9648 -8.9209 19.8867 -19.8867 19.8867c-10.9648 0 -19.8867 -8.9209 -19.8867 -19.8867s8.9209 -19.8877 19.8867 -19.8877zM383.717 282.245
c6.94336 0 12.5713 -5.62793 12.5713 -12.5713s-5.62793 -12.5713 -12.5713 -12.5713h-180.149c-6.94238 0 -12.5713 5.62793 -12.5713 12.5713c0 6.94238 5.62793 12.5713 12.5713 12.5713h180.149zM373.912 216.965c6.94141 0 12.5693 -5.62891 12.5693 -12.5713
c0 -6.94336 -5.62793 -12.5713 -12.5703 -12.5713h-160.538c-6.94238 0 -12.5703 5.62793 -12.5703 12.5713s5.62793 12.5713 12.5703 12.5713h160.539zM506.342 338.256c4.79492 -5.88281 6.66699 -13.5225 5.13574 -20.9541l-35.1631 -170.676
c-2.39453 -11.6279 -12.752 -20.0674 -24.624 -20.0674h-310.893l7.39941 -35.916h301.166c6.94238 0 12.5703 -5.62793 12.5703 -12.5713s-5.62793 -12.5713 -12.5703 -12.5713h-301.167c-11.873 0 -22.2295 8.44043 -24.625 20.0684l-60.8262 295.262l-55.1777 23.9512
c-6.36719 2.7627 -9.29004 10.167 -6.52441 16.5371c2.7627 6.36719 10.166 9.29102 16.5361 6.52344l55.1768 -23.9502c7.50098 -3.25684 12.9629 -9.98047 14.6143 -17.9883l7.9082 -38.3896h391.574c7.5918 0 14.6953 -3.37402 19.4893 -9.25781zM451.69 151.698
l35.1611 170.674l-386.394 0.000976562l35.1611 -170.675h316.071z" />
    <glyph glyph-name="uniF113" unicode="&#xf113;" 
d="M329.21 97.1807c37.1143 -7.1709 185.278 -41.959 182.759 -140.8c0 -5.35156 -4.33887 -9.69043 -9.69043 -9.69043h-492.557c-5.35156 0 -9.69043 4.33887 -9.69043 9.69043c-2.51953 98.8408 145.645 133.629 182.759 140.8v8.91504
c-2.53516 2.06934 -4.95996 4.26855 -7.26758 6.58984c-18.6689 20.5195 -30.4297 46.3799 -33.625 73.9365c-16.7744 2.64258 -31.8584 11.7139 -42.0566 25.291c-14.0508 19.8652 -15.3105 48.2578 -3.58496 84.3057c0.689453 2.06738 2.05469 3.84375 3.87598 5.03906
l5.33008 3.58496c-0.786133 32.3516 10.3936 63.8545 31.3965 88.4727c26.0664 28.9736 66.1846 43.9941 119.093 43.9941c53.0059 -0.194336 93.0273 -15.0205 119.094 -44.3818c21.0029 -24.6182 32.1826 -56.1211 31.3965 -88.4717l5.33008 -3.58594
c1.82129 -1.19531 3.18652 -2.97168 3.87598 -5.03906c11.7246 -35.8535 10.4648 -64.4404 -3.58594 -84.3047c-10.2363 -13.4834 -25.3203 -22.4512 -42.0557 -25.001c-3.18164 -27.5137 -14.9072 -53.3369 -33.5283 -73.8398
c-2.3252 -2.32617 -4.74805 -4.55469 -7.26758 -6.58984v-8.91504zM136.083 208.231c-11.6982 13.2939 -17.4111 30.8164 -15.7949 48.4512c1.8877 10.6016 7.48633 20.1846 15.7949 27.0361c4.45703 97.0957 72.2891 107.756 101.36 107.756
c6.19434 0.0175781 12.3828 -0.435547 18.5078 -1.35742c6.12695 0.920898 12.3145 1.375 18.5088 1.35742c29.2646 0 97.1934 -10.8535 101.36 -107.756c8.25488 -6.90723 13.7852 -16.5234 15.6016 -27.1328c1.60449 -17.6338 -4.10645 -35.1514 -15.7959 -48.4512
c8.26465 2.75879 15.4736 8.00488 20.6406 15.0195c9.98145 14.1475 10.5625 35.6602 1.93848 63.8584l-7.07422 4.74902c-2.97656 1.98633 -4.61523 5.4502 -4.26367 9.01172c1.62988 28.9619 -7.79004 57.4648 -26.3574 79.751
c-22.2881 24.8066 -57.4639 37.5977 -104.559 37.4043c-47.0947 -0.194336 -82.2705 -12.5977 -104.17 -37.4043c-18.5684 -22.2861 -27.9883 -50.7891 -26.3574 -79.751c0.350586 -3.56152 -1.28809 -7.02539 -4.26367 -9.01172l-7.07422 -4.74902
c-8.62402 -28.2949 -7.75195 -49.7109 1.93848 -63.8584l-0.485352 0.0966797c5.13281 -7.00879 12.3096 -12.2549 20.5439 -15.0195zM356.536 287.691l-0.484375 0.0966797c-4.84473 69.0918 -46.5127 84.4023 -81.1074 84.4023
c-5.55273 0.0380859 -11.0977 -0.416992 -16.5703 -1.35645c-1.2793 -0.261719 -2.59668 -0.261719 -3.87598 0c-5.47266 0.942383 -11.0176 1.39648 -16.5703 1.35645c-34.8848 0 -76.3594 -14.9229 -81.5918 -83.4326c17.0547 1.06543 52.4238 5.91016 71.8047 26.7451
c3.30664 3.4834 8.66699 4.01953 12.5977 1.25977c34.7295 -21.2764 75.1367 -31.4209 115.798 -29.0713zM159.728 206.39c0 -0.484375 -0.678711 -49.9043 29.9424 -80.4287c17.1836 -16.459 40.3857 -25.1152 64.1494 -23.9355h4.8457
c23.8145 -1.20508 47.0674 7.49316 64.2461 24.0322c13.1709 14.3613 22.1523 32.0566 25.9697 51.165l-44.4775 -23.8389c0.0429688 -0.87207 0.0429688 -1.74414 0 -2.61621c0.00292969 -7.1416 -2.73145 -14.0127 -7.64258 -19.2002
c-10.5957 -11.1914 -28.2607 -11.6748 -39.4521 -1.0791c-11.1924 10.5967 -11.6758 28.2607 -1.08008 39.4531c10.5967 11.1924 28.2607 11.6758 39.4531 1.0791l56.3975 30.2334v5.03906c-0.0205078 2.38867 0.841797 4.70117 2.42285 6.49219
c13.2754 15.2139 19.3799 29.2646 17.7324 40.5059c-0.869141 6.18457 -3.97168 11.8369 -8.7207 15.8916c-6.87988 -1.06543 -13.4697 -1.06543 -19.9619 -1.06543c-37.7646 0.232422 -74.8223 10.249 -107.562 29.0703
c-29.0703 -25.0977 -74.4209 -27.5195 -87.2119 -27.5195c-4.88281 -4.16602 -8.02832 -10.0078 -8.81836 -16.377c-1.64746 -11.4346 4.45801 -25.292 17.7334 -40.5059c1.58008 -1.79102 2.44336 -4.10352 2.42285 -6.49219zM285.022 150.768
c0 4.7627 -3.86133 8.625 -8.62402 8.625c-4.76367 0 -8.625 -3.8623 -8.625 -8.625s3.86133 -8.62402 8.625 -8.62402c4.7627 0 8.62402 3.86133 8.62402 8.62402zM246.262 -33.3477v52.1338c-36.8232 2.81055 -63.5684 19.5742 -63.5684 41.5713v17.3457
c-37.0176 -7.84863 -155.335 -38.2764 -162.99 -111.051h226.559zM202.073 60.3574c0 -9.20508 21.0283 -22.4814 53.8779 -22.4814c32.8506 0 53.8779 13.2764 53.8779 22.4814v33.4316c-16.1074 -7.46973 -33.7021 -11.1816 -51.4551 -10.8535h-4.84473
c-17.7529 -0.328125 -35.3477 3.38379 -51.4561 10.8535v-33.1406v-0.291016zM265.642 -33.6377h226.559c-7.94629 72.8701 -125.683 103.298 -162.99 111.05v-16.958c0 -22.1904 -26.7451 -39.0518 -63.5684 -41.5703v-52.5215z" />
    <glyph glyph-name="uniF107" unicode="&#xf107;" 
d="M500.363 26.6699c-6.42578 0 -11.6357 5.20801 -11.6357 11.6357v365.056l-368.39 -443.295h380.027c6.42676 0 11.6367 -5.20801 11.6367 -11.6357s-5.20996 -11.6367 -11.6367 -11.6367h-404.825c-4.51367 0 -8.61719 2.61035 -10.5352 6.69336
c-1.91699 4.08398 -1.2998 8.90918 1.58398 12.3799l404.826 487.14c3.13184 3.77051 8.28906 5.17188 12.9023 3.50684c4.61035 -1.66602 7.68262 -6.04297 7.68262 -10.9443v-397.264c0 -6.42773 -5.20996 -11.6357 -11.6367 -11.6357zM410.979 224.204
c3.13086 3.76953 8.29004 5.1709 12.9043 3.50586c4.61035 -1.66602 7.68262 -6.04297 7.68262 -10.9443v-178.458c0 -6.42773 -5.20996 -11.6367 -11.6357 -11.6367h-148.306c-4.5127 0 -8.61621 2.61035 -10.5342 6.69336
c-1.91797 4.08398 -1.30078 8.90918 1.58398 12.3799zM408.291 49.9424v134.616l-111.869 -134.616h111.869zM97.4238 68.6055c-10.3584 -13.0127 -25.8457 -20.4736 -42.4912 -20.4736c-12.2119 0 -24.21 4.19629 -33.7793 11.8164l-0.674805 0.536133
c-11.3418 9.02832 -18.4893 21.9365 -20.125 36.3408c-1.63477 14.4062 2.4375 28.585 11.4678 39.9277l27.8242 34.9541c4.00098 5.02832 11.3213 5.8584 16.3516 1.85742l58.293 -46.4053l135.246 169.889l-49.1895 39.1592l-107.392 -134.9
c-4.00293 -5.02832 -11.3213 -5.85645 -16.3516 -1.85742c-5.02637 4.00293 -5.8584 11.3252 -1.85547 16.3516l114.641 144.004c0.0263672 0.0332031 0.0556641 0.0605469 0.0820312 0.09375c0.149414 0.18457 0.310547 0.361328 0.47168 0.536133
c0.100586 0.110352 0.202148 0.223633 0.307617 0.329102c0.151367 0.152344 0.311523 0.296875 0.472656 0.44043c0.130859 0.118164 0.260742 0.236328 0.397461 0.347656c0.147461 0.123047 0.302734 0.236328 0.458008 0.350586
c0.161133 0.121094 0.324219 0.239258 0.491211 0.350586c0.0595703 0.0390625 0.110352 0.0820312 0.168945 0.120117l111.738 71.2031c4.19043 2.66797 9.61328 2.38379 13.501 -0.709961c3.88672 -3.09473 5.38086 -8.31543 3.71777 -12.998l-44.3438 -124.858
c-0.00976562 -0.0263672 -0.0253906 -0.0498047 -0.0341797 -0.0761719c-0.186523 -0.514648 -0.411133 -1.01953 -0.674805 -1.51074c-0.0546875 -0.101562 -0.113281 -0.199219 -0.170898 -0.298828c-0.22168 -0.385742 -0.466797 -0.761719 -0.737305 -1.12793
c-0.0683594 -0.0927734 -0.129883 -0.19043 -0.201172 -0.280273c-0.0136719 -0.0185547 -0.0263672 -0.0400391 -0.0419922 -0.0585938l-149.741 -188.097zM218.496 351.508l41.8848 -33.3467l27.5576 77.5947l-31.7295 -20.2188l5.40234 -4.30078
c5.02637 -4.00293 5.8584 -11.3232 1.85547 -16.3516c-2.29785 -2.88379 -5.68945 -4.3877 -9.1123 -4.3877c-2.54102 0 -5.09961 0.827148 -7.24023 2.53418l-11.6602 9.28223zM54.9326 71.4043c9.51562 0 18.3662 4.26367 24.2842 11.6963l20.5791 25.8525
l-49.1895 39.1572l-20.5791 -25.8496c-5.1582 -6.48047 -7.48438 -14.5791 -6.5498 -22.8086c0.933594 -8.22949 5.01758 -15.6016 11.4961 -20.7588l0.676758 -0.539062c5.54492 -4.41504 12.2139 -6.75 19.2822 -6.75zM120.974 174.4
c-2.54004 0 -5.09668 0.829102 -7.23926 2.53223c-5.02734 4.00293 -5.8584 11.3242 -1.85547 16.3516l76.0898 95.5781c4.00293 5.02832 11.3213 5.85742 16.3516 1.85742c5.02637 -4.00293 5.8584 -11.3242 1.85547 -16.3516l-76.0898 -95.5781
c-2.29785 -2.88574 -5.68945 -4.38965 -9.1123 -4.38965z" />
    <glyph glyph-name="uniF10E" unicode="&#xf10e;" 
d="M441.617 261.526l70.3916 -70.374l-68.6787 -68.6787c-51.417 -51.416 -118.937 -77.1201 -186.474 -77.1201s-135.066 25.7129 -186.474 77.1201l-70.3828 70.3828l68.6787 68.6699c102.824 102.824 270.115 102.824 372.938 0zM431.092 134.703l56.4502 56.4492
l-58.1543 58.1533c-96.0771 96.0693 -252.401 96.0693 -348.479 0l-56.4502 -56.4492l58.1543 -58.1533c96.0771 -96.0693 252.401 -96.0693 348.479 0zM247.109 261.448c4.78223 0 8.64844 -3.87402 8.64844 -8.64844c0 -4.77344 -3.875 -8.64844 -8.64844 -8.64844
c-23.8447 0 -43.2432 -19.3994 -43.2432 -43.2432c0 -4.77441 -3.875 -8.64844 -8.64844 -8.64844c-4.77441 0 -8.64941 3.87402 -8.64941 8.64844c0 33.3838 27.1572 60.54 60.541 60.54zM255.758 304.691c62.002 0 112.433 -50.4385 112.433 -112.432
c0 -61.9941 -50.4395 -112.433 -112.433 -112.433s-112.433 50.4385 -112.433 112.433c0 61.9932 50.4395 112.432 112.433 112.432zM255.758 97.124c52.4629 0 95.1348 42.6816 95.1348 95.1357s-42.6807 95.1348 -95.1348 95.1348s-95.1348 -42.6807 -95.1348 -95.1348
s42.6807 -95.1357 95.1348 -95.1357z" />
    <glyph glyph-name="uniF100" unicode="&#xf100;" 
d="M61.793 6.62109c4.88184 0 8.82812 -3.95508 8.8291 -8.82715v-52.9658c0 -4.87305 -3.94629 -8.82812 -8.82812 -8.82812h-52.9658c-4.88184 0 -8.82812 3.95508 -8.82812 8.82715v52.9658c0 4.87305 3.94629 8.82812 8.82812 8.82812h52.9648zM61.793 94.8975
c4.88184 0 8.82812 -3.95508 8.8291 -8.82812v-52.9668c0 -4.87207 -3.94629 -8.82715 -8.82812 -8.82715h-52.9658c-4.88184 0 -8.82812 3.95508 -8.82812 8.82715v52.9668c0 4.87305 3.94629 8.82812 8.82812 8.82812h52.9648zM150.069 94.8975
c4.88184 0 8.82812 -3.95508 8.82812 -8.82812v-52.9668c0 -4.87207 -3.94629 -8.82715 -8.82812 -8.82715h-52.9668c-4.88184 0 -8.82715 3.95508 -8.82715 8.82715v52.9668c0 4.87305 3.94531 8.82812 8.82715 8.82812h52.9668zM61.793 183.172
c4.88184 0 8.82812 -3.9541 8.8291 -8.82812v-52.9658c0 -4.87305 -3.94629 -8.82812 -8.82812 -8.82812h-52.9658c-4.88184 0 -8.82812 3.95508 -8.82812 8.82812v52.9658c0 4.87305 3.94629 8.82812 8.82812 8.82812h52.9648zM61.793 271.448
c4.88184 0 8.82812 -3.9541 8.8291 -8.82812v-52.9658c0 -4.87305 -3.94629 -8.82812 -8.82812 -8.82812h-52.9658c-4.88184 0 -8.82812 3.95508 -8.82812 8.82812v52.9658c0 4.87305 3.94629 8.82812 8.82812 8.82812h52.9648zM150.069 183.172
c4.88184 0 8.82812 -3.9541 8.82812 -8.82812v-52.9658c0 -4.87305 -3.94629 -8.82812 -8.82812 -8.82812h-52.9668c-4.88184 0 -8.82715 3.95508 -8.82715 8.82812v52.9658c0 4.87305 3.94531 8.82812 8.82715 8.82812h52.9668zM150.069 271.448
c4.88184 0 8.82812 -3.9541 8.82812 -8.82812v-52.9658c0 -4.87305 -3.94629 -8.82812 -8.82812 -8.82812h-52.9668c-4.88184 0 -8.82715 3.95508 -8.82715 8.82812v52.9658c0 4.87305 3.94531 8.82812 8.82715 8.82812h52.9668zM61.793 359.724
c4.88184 0 8.82812 -3.95508 8.8291 -8.82617v-52.9668c0 -4.87305 -3.94629 -8.82812 -8.82812 -8.82812h-52.9658c-4.88184 0 -8.82812 3.95508 -8.82812 8.82812v52.9668c0 4.87109 3.94629 8.82617 8.82812 8.82617h52.9648zM326.621 183.172
c4.88086 0 8.82715 -3.9541 8.82812 -8.82812v-52.9658c0 -4.87305 -3.94629 -8.82812 -8.82812 -8.82812h-52.9658c-4.88184 0 -8.82812 3.95508 -8.82812 8.82812v52.9658c0 4.87305 3.94629 8.82812 8.82812 8.82812h52.9658zM326.621 271.448
c4.88086 0 8.82715 -3.9541 8.82812 -8.82812v-52.9658c0 -4.87305 -3.94629 -8.82812 -8.82812 -8.82812h-52.9658c-4.88184 0 -8.82812 3.95508 -8.82812 8.82812v52.9658c0 4.87305 3.94629 8.82812 8.82812 8.82812h52.9658zM326.621 359.724
c4.88086 0 8.82715 -3.95508 8.82812 -8.82617v-52.9678c0 -4.87305 -3.94629 -8.82812 -8.82812 -8.82812h-52.9658c-4.88184 0 -8.82812 3.95508 -8.82812 8.82812v52.9668c0 4.87207 3.94629 8.82715 8.82812 8.82715h52.9658zM503.172 183.172
c4.88184 0 8.82812 -3.9541 8.82812 -8.82812v-52.9658c0 -4.87305 -3.94629 -8.82812 -8.82812 -8.82812h-52.9658c-4.88184 0 -8.82812 3.95508 -8.82812 8.82812v52.9658c0 4.87305 3.94629 8.82812 8.82812 8.82812h52.9658zM503.172 271.448
c4.88184 0 8.82812 -3.9541 8.82812 -8.82812v-52.9658c0 -4.87305 -3.94629 -8.82812 -8.82812 -8.82812h-52.9658c-4.88184 0 -8.82812 3.95508 -8.82812 8.82812v52.9658c0 4.87305 3.94629 8.82812 8.82812 8.82812h52.9658zM503.172 359.724
c4.88184 0 8.82812 -3.95508 8.82812 -8.82617v-52.9678c0 -4.87305 -3.94629 -8.82812 -8.82812 -8.82812h-52.9658c-4.88184 0 -8.82812 3.95508 -8.82812 8.82812v52.9668c0 4.87207 3.94629 8.82715 8.82812 8.82715h52.9658zM503.172 448
c4.88184 0 8.82812 -3.95508 8.82812 -8.82812v-52.9658c0 -4.87305 -3.94629 -8.82812 -8.82812 -8.82812h-52.9658c-4.88184 0 -8.82812 3.95508 -8.82812 8.82812v52.9658c0 4.87305 3.94629 8.82812 8.82812 8.82812h52.9658zM326.621 94.8975
c4.88086 0 8.82715 -3.95508 8.82812 -8.82812v-52.9668c0 -4.87207 -3.94629 -8.82715 -8.82812 -8.82715h-52.9658c-4.88184 0 -8.82812 3.95508 -8.82812 8.82715v52.9668c0 4.87305 3.94629 8.82812 8.82812 8.82812h52.9658zM414.897 94.8975
c4.88086 0 8.82617 -3.95508 8.82715 -8.82812v-52.9668c0 -4.87207 -3.94531 -8.82715 -8.82715 -8.82715h-52.9668c-4.88184 0 -8.82812 3.95508 -8.82812 8.82715v52.9668c0 4.87305 3.94629 8.82812 8.82812 8.82812h52.9668zM414.897 183.172
c4.88086 0 8.82617 -3.9541 8.82715 -8.82812v-52.9658c0 -4.87305 -3.94531 -8.82812 -8.82715 -8.82812h-52.9668c-4.88184 0 -8.82812 3.95508 -8.82812 8.82812v52.9658c0 4.87305 3.94629 8.82812 8.82812 8.82812h52.9668zM503.172 94.8975
c4.88184 0 8.82812 -3.95508 8.82812 -8.82812v-52.9668c0 -4.87207 -3.94629 -8.82715 -8.82812 -8.82715h-52.9658c-4.88184 0 -8.82812 3.95508 -8.82812 8.82715v52.9668c0 4.87305 3.94629 8.82812 8.82812 8.82812h52.9658zM150.069 6.62109
c4.88184 0 8.82812 -3.95508 8.82812 -8.82812v-52.9658c0 -4.87305 -3.94629 -8.82812 -8.82812 -8.82812h-52.9668c-4.88184 0 -8.82715 3.95508 -8.82715 8.82812v52.9658c0 4.87305 3.94531 8.82812 8.82715 8.82812h52.9668zM238.345 6.62109
c4.88086 0 8.82715 -3.95508 8.82812 -8.82812v-52.9658c0 -4.87305 -3.94629 -8.82812 -8.82812 -8.82812h-52.9658c-4.88184 0 -8.82812 3.95508 -8.82812 8.82812v52.9658c0 4.87305 3.94629 8.82812 8.82812 8.82812h52.9658zM238.345 94.8975
c4.88086 0 8.82715 -3.95508 8.82812 -8.82812v-52.9668c0 -4.87207 -3.94629 -8.82715 -8.82812 -8.82715h-52.9658c-4.88184 0 -8.82812 3.95508 -8.82812 8.82715v52.9668c0 4.87305 3.94629 8.82812 8.82812 8.82812h52.9658zM326.621 6.62109
c4.88086 0 8.82715 -3.95508 8.82812 -8.82812v-52.9658c0 -4.87305 -3.94629 -8.82812 -8.82812 -8.82812h-52.9658c-4.88184 0 -8.82812 3.95508 -8.82812 8.82812v52.9658c0 4.87305 3.94629 8.82812 8.82812 8.82812h52.9658zM414.897 6.62109
c4.88086 0 8.82617 -3.95508 8.82715 -8.82812v-52.9658c0 -4.87305 -3.94531 -8.82812 -8.82715 -8.82812h-52.9668c-4.88184 0 -8.82812 3.95508 -8.82812 8.82812v52.9658c0 4.87305 3.94629 8.82812 8.82812 8.82812h52.9668zM503.172 6.62109
c4.88184 0 8.82812 -3.95508 8.82812 -8.82812v-52.9658c0 -4.87305 -3.94629 -8.82812 -8.82812 -8.82812h-52.9658c-4.88184 0 -8.82812 3.95508 -8.82812 8.82812v52.9658c0 4.87305 3.94629 8.82812 8.82812 8.82812h52.9658z" />
    <glyph glyph-name="uniF105" unicode="&#xf105;" 
d="M405.665 448c17.0234 0 30.8721 -13.8486 30.8721 -30.8721v-395.536c0 -2.84961 -1.13184 -5.58301 -3.14746 -7.59863l-74.8438 -74.8457c-2.0166 -2.01465 -4.75 -3.14746 -7.60059 -3.14746h-244.611c-17.0234 0 -30.8721 13.8486 -30.8721 30.8721v450.256
c0 17.0234 13.8496 30.8721 30.8721 30.8721h299.331zM361.694 -27.3037l38.1484 38.1494h-28.7715c-5.1709 0 -9.37695 -4.20703 -9.37695 -9.37695v-28.7725zM106.334 426.505c-5.16992 0 -9.37695 -4.20605 -9.37695 -9.37695v-33.2178h318.085v33.2178
c0 5.1709 -4.20605 9.37695 -9.37695 9.37695h-299.331zM96.957 -33.1279c0 -5.16992 4.20703 -9.37695 9.37695 -9.37695h233.865v43.9736c0 17.0225 13.8486 30.8721 30.8721 30.8721h43.9707v330.074h-318.085v-395.543zM141.205 282.834
c-5.93555 0 -10.7471 4.81152 -10.7471 10.7471c0 5.93652 4.81152 10.748 10.7471 10.748h140.743c5.93555 0 10.7471 -4.81152 10.7471 -10.748c0 -5.93555 -4.81152 -10.7471 -10.7471 -10.7471h-140.743zM324.938 282.834c-5.93555 0 -10.748 4.81152 -10.748 10.7471
c0 5.93652 4.8125 10.748 10.748 10.748h36.3369c5.93555 0 10.748 -4.81152 10.748 -10.748c0 -5.93555 -4.8125 -10.7471 -10.748 -10.7471h-36.3369zM141.205 197.492c-5.93555 0 -10.7471 4.8125 -10.7471 10.748s4.81152 10.7471 10.7471 10.7471h140.743
c5.93555 0 10.7471 -4.81152 10.7471 -10.7471s-4.81152 -10.748 -10.7471 -10.748h-140.743zM324.938 197.492c-5.93555 0 -10.748 4.8125 -10.748 10.748s4.8125 10.7471 10.748 10.7471h36.3369c5.93555 0 10.748 -4.81152 10.748 -10.7471
s-4.8125 -10.748 -10.748 -10.748h-36.3369zM292.695 122.899c0 -5.93652 -4.81152 -10.748 -10.7471 -10.748h-140.743c-5.93555 0 -10.7471 4.81152 -10.7471 10.748c0 5.93555 4.81152 10.7471 10.7471 10.7471h140.743c5.93555 0 10.7471 -4.81152 10.7471 -10.7471z
M324.938 112.151c-5.93555 0 -10.748 4.81152 -10.748 10.748c0 5.93555 4.8125 10.7471 10.748 10.7471h36.3369c5.93555 0 10.748 -4.81152 10.748 -10.7471c0 -5.93652 -4.8125 -10.748 -10.748 -10.748h-36.3369zM361.275 50.7363h-102.358
c-5.93555 0 -10.7471 4.81152 -10.7471 10.748c0 5.93555 4.81152 10.7471 10.7471 10.7471h102.358c5.93555 0 10.748 -4.81152 10.748 -10.7471c0 -5.93652 -4.8125 -10.748 -10.748 -10.748z" />
    <glyph glyph-name="uniF110" unicode="&#xf110;" 
d="M504.52 211.135c4.13086 0 7.47949 -3.34863 7.47949 -7.47949v-48.1807c0 -4.12988 -3.34863 -7.47949 -7.47949 -7.47949h-24.1787v-134.826c0 -4.12988 -3.34863 -7.47949 -7.47852 -7.47949s-7.47949 3.34961 -7.47949 7.47949v134.826h-418.767v-51.2217
c0 -4.12988 -3.34961 -7.47852 -7.47949 -7.47852s-7.47852 3.34863 -7.47852 7.47852v51.2217h-24.1797c-4.12988 0 -7.47852 3.34961 -7.47852 7.47949v48.1807c0 4.12988 3.34863 7.47949 7.47852 7.47949h43.8164v21.0244c0 39.9941 28.3223 75.3936 66.4209 88.2168
c-12.1748 9.11035 -20.0693 23.6426 -20.0693 39.9824v36.5107c0 27.5195 22.3896 49.9082 49.9092 49.9082s49.9082 -22.3887 49.9082 -49.9082v-36.5107c0 -16.3408 -7.89453 -30.873 -20.0693 -39.9824c38.0986 -12.8223 66.4209 -48.2227 66.4209 -88.2168v-21.0244
h91.0977v18.5986h-61.6035c-4.12988 0 -7.47949 3.34863 -7.47949 7.47949v78.5273c0 4.12988 3.34961 7.47949 7.47949 7.47949s7.47852 -3.34961 7.47852 -7.47949v-71.0488h176.312v112.094h-176.312v-16.1152c0 -4.12988 -3.34863 -7.47852 -7.47852 -7.47852
s-7.47949 3.34863 -7.47949 7.47852v23.5947c0 4.12988 3.34961 7.47852 7.47949 7.47852h191.269c4.12988 0 7.47852 -3.34863 7.47852 -7.47852v-127.052c0 -4.13086 -3.34863 -7.47949 -7.47852 -7.47949h-61.6035v-18.5986h101.545zM349.87 229.733v-18.5986h38.1455
v18.5986h-38.1455zM112.604 396.869h-0.000976562v-10.3848c26.2109 2.82715 36.1182 19.9766 36.5625 20.7695c1.38965 2.57715 4.14844 4.07715 7.0625 3.88574c2.92188 -0.192383 5.44824 -2.09766 6.48535 -4.83594c0.265625 -0.677734 6.0127 -15.001 19.791 -19.1113
v9.67676c0 19.2715 -15.6777 34.9502 -34.9502 34.9502c-19.2715 0 -34.9502 -15.6787 -34.9502 -34.9502zM112.604 360.358c0 -18.7861 14.9014 -34.1514 33.5029 -34.9131c0.448242 0.0117188 0.894531 0.0292969 1.34473 0.0351562l0.101562 0.000976562
l0.102539 -0.000976562c0.449219 -0.00585938 0.896484 -0.0234375 1.34473 -0.0351562c18.6025 0.761719 33.5029 16.127 33.5029 34.9131v11.4551c-13.7012 2.45605 -22.6182 11.2168 -27.8301 18.5156c-7.47363 -7.56152 -20.8701 -17.0264 -42.0693 -18.8701v-11.1006z
M143.315 285.394l-9.50098 -41.2461l13.7402 -12.5762l13.7402 12.5762l-9.50098 41.2461h-8.47852zM137.138 309.653l4.78906 -9.30176h11.2578l4.78906 9.30176c-2.05762 0.302734 -4.12109 0.539062 -6.18945 0.681641
c-0.236328 0.0166016 -0.473633 0.0322266 -0.709961 0.0458984c-0.806641 0.0498047 -1.61328 0.0732422 -2.4209 0.0976562c-0.365234 -0.0078125 -0.729492 -0.0283203 -1.09766 -0.0283203s-0.732422 0.0205078 -1.09766 0.0283203
c-0.808594 -0.0244141 -1.61426 -0.0478516 -2.4209 -0.0976562c-0.236328 -0.0136719 -0.473633 -0.0292969 -0.708984 -0.0458984c-2.07031 -0.142578 -4.13379 -0.378906 -6.19043 -0.681641zM66.2529 232.159v-21.0244h162.603v21.0244
c0 20.3486 -8.69824 39.8193 -24.4951 54.8271c-9.02344 8.57324 -19.8613 15.0469 -31.4424 19.0195l-7.27051 -14.1221l11.2031 -48.6309c0.605469 -2.62695 -0.250977 -5.37598 -2.23926 -7.19531l-22.0078 -20.1436
c-1.42969 -1.30664 -3.24023 -1.96094 -5.0498 -1.96094s-3.62012 0.654297 -5.04883 1.96094l-22.0078 20.1436c-1.98926 1.81934 -2.84473 4.56836 -2.23926 7.19531l11.2031 48.6309l-7.27051 14.1221c-11.5811 -3.97266 -22.4189 -10.4453 -31.4424 -19.0195
c-15.7949 -15.0068 -24.4951 -34.4785 -24.4951 -54.8271zM497.041 162.953v33.2236h-482.083v-33.2236h482.083zM472.862 -4.28027c4.12988 0 7.47852 -3.34863 7.47754 -7.47852v-43.5391c0 -4.12988 -3.34863 -7.47949 -7.47852 -7.47949h-433.726
c-4.12988 0 -7.47852 3.34961 -7.47852 7.47949v127.142c0 4.12988 3.34863 7.47852 7.47852 7.47852s7.47949 -3.34863 7.47949 -7.47852v-119.663h418.768v36.0605c0 4.12988 3.34961 7.47852 7.47949 7.47852z" />
    <glyph glyph-name="uniF111" unicode="&#xf111;" 
d="M404.267 132.59c7.08203 -14.6992 3.71191 -30.9971 -8.53418 -41.4707c-7.23242 -6.20801 -15.9785 -9.21582 -24.4697 -8.76855c-3.07129 -7.70117 -9.25781 -14.2939 -17.8125 -18.6025c-8.74609 -4.39453 -18.3682 -5.65332 -26.7734 -3.86133
c-4.52246 -9.17285 -12.501 -16.7461 -22.208 -20.501c-8.21289 -3.2002 -16.7471 -3.17871 -24.2559 -0.255859c-5.61035 -4.71387 -13.6963 -7.125 -24.2129 -7.125c-13.0986 0 -30.0156 7.25293 -37.8672 12.416c-9.51367 6.25 -57.2578 42.1543 -96.9805 75.4131
c-6.61426 5.54688 -16.4482 15.8301 -25.9629 25.7715c-7.06152 7.35938 -13.4619 14.1211 -16.7686 16.917c-4.50195 3.79688 -5.05566 10.5381 -1.25879 15.0391c3.77637 4.52344 10.4961 5.09961 15.04 1.25977c3.62695 -3.07227 10.6875 -10.3896 18.4111 -18.4531
c8.7041 -9.08789 18.5596 -19.3711 24.2559 -24.1709c40.5537 -33.9629 87.5088 -68.9922 94.9971 -73.9199c6.25 -4.13965 19.0283 -8.93945 26.1328 -8.93945c9.98438 0 10.9023 2.56055 11.3066 3.62695c1.2168 3.34961 4.01172 5.86719 7.48828 6.71973
c3.43359 0.832031 7.10449 -0.0859375 9.74902 -2.47461c4.24512 -3.88281 8.98145 -3.13574 12.2451 -1.89941c6.7627 2.62402 11.9473 9.34473 12.5869 16.3418c0.383789 4.05273 3.03027 7.55176 6.82715 8.98047c3.79688 1.4082 8.08496 0.597656 11.0723 -2.17578
c2.66699 -2.47461 9.79199 -3.07227 16.6182 0.383789c2.68848 1.34375 8.89648 5.22754 8.17188 12.0107c-0.448242 4.13965 1.55664 8.17188 5.14062 10.3047c3.5625 2.13281 8.06348 1.9834 11.5195 -0.383789c3.13672 -2.19824 8.91699 -1.04688 13.1416 2.58008
c2.87988 2.45312 7.12598 7.80859 3.17871 16.0215c-8 16.6396 -43.5625 45.3984 -74.9229 70.7627c-17.3438 14.0166 -33.8135 27.3496 -46.0156 38.8057c-3.11523 -1.25977 -5.46289 -2.30469 -7.46777 -3.2002c-5.5459 -2.49609 -9.23633 -4.03223 -16.0205 -5.07715
c-16.4268 -21.8018 -38.4854 -29.4404 -62.6562 -21.4609c-9.6416 3.17773 -16.1279 10.0049 -18.3252 19.2207c-5.12012 21.6543 14.6992 51.1787 29.291 65.7715c38.3359 38.3574 65.1738 52.7578 114.091 30.8906c41.9844 -18.7949 84.0537 -33.4941 84.4805 -33.6426
c5.56836 -1.94141 8.49121 -8.02148 6.57129 -13.5889c-1.94141 -5.56836 -7.97852 -8.5127 -13.5889 -6.57129c-0.427734 0.148438 -43.3506 15.1465 -86.1875 34.3037c-37.7598 16.875 -55.6367 8.19238 -90.3037 -26.4961
c-14.5703 -14.5703 -25.8135 -36.374 -23.5732 -45.7393c0.320312 -1.36426 0.916992 -2.79492 4.24512 -3.90332c10.4316 -3.49805 26.0479 -5.41797 41.1309 17.1309c1.77148 2.64453 4.62891 4.35156 7.80762 4.67188c7.19043 0.724609 8.98242 1.53613 14.3154 3.9248
c3.49805 1.55762 7.93555 3.5625 15.125 6.16504c3.86133 1.38672 8.23438 0.448242 11.1572 -2.49609c11.6689 -11.6689 29.9727 -26.4736 49.3438 -42.1328c34.7305 -28.0957 70.6768 -57.1738 80.7246 -78.123zM213.333 309.337c5.8877 0 10.667 -4.7793 10.667 -10.667
s-4.7793 -10.667 -10.667 -10.667h-96c-5.8877 0 -10.667 4.7793 -10.667 10.667s4.7793 10.667 10.667 10.667h96zM435.52 155.289c3.28516 -4.88574 1.98438 -11.5205 -2.89941 -14.8057l-31.1895 -20.9492c-1.83496 -1.2373 -3.90332 -1.81348 -5.93066 -1.81348
c-3.43457 0 -6.80566 1.66406 -8.875 4.71484c-3.28613 4.88574 -1.98438 11.5205 2.90137 14.8057l31.1885 20.9492c4.88477 3.32715 11.498 1.9834 14.8047 -2.90137zM369.301 104.387c4.62988 -3.64746 5.41895 -10.3682 1.77051 -14.9766
c-2.13281 -2.66699 -5.26953 -4.0752 -8.40527 -4.0752c-2.30371 0 -4.65137 0.74707 -6.5918 2.2832c-11.2432 8.875 -59.6055 59.2861 -65.0879 65.0029c-4.0752 4.24609 -3.94727 11.0078 0.319336 15.083c4.24609 4.0957 11.0088 3.94727 15.083 -0.320312
c21.1201 -22.0156 55.2754 -56.9805 62.9121 -62.9971zM326.677 82.9902c4.58691 -3.66895 5.33398 -10.3896 1.66309 -14.998c-2.1123 -2.60254 -5.22559 -3.98926 -8.34082 -3.98926c-2.3252 0 -4.69336 0.768555 -6.65625 2.3252
c-15.8291 12.6719 -54.1436 54.0381 -54.5273 54.4434c-3.98926 4.33008 -3.69141 11.0938 0.639648 15.082c4.35156 3.96875 11.0723 3.71289 15.083 -0.639648c7.25391 -7.89258 39.3604 -42.0049 52.1387 -52.2236zM284.224 61.5068
c4.50098 -3.79688 5.07715 -10.5166 1.28027 -15.04c-2.1123 -2.49609 -5.1416 -3.79688 -8.1709 -3.79688c-2.43164 0 -4.86426 0.832031 -6.86914 2.5166c-15.7227 13.2695 -45.5039 44.8438 -54.251 54.208c-4.01074 4.31055 -3.79688 11.0518 0.511719 15.083
c4.28809 4.03223 11.0518 3.79785 15.083 -0.511719c6.08008 -6.50684 37.2051 -39.6377 52.416 -52.459zM124.672 327.747c2.36816 -2.21777 3.56348 -5.41797 3.28516 -8.66113c-4.8418 -55.4668 -41.5996 -168.277 -43.1572 -173.056
c-1.42871 -4.39551 -5.52441 -7.36035 -10.1328 -7.36035h-64c-5.8877 0 -10.667 4.7793 -10.667 10.667v192c0 2.94434 1.21582 5.75977 3.34961 7.76465c2.13379 2.02734 4.92871 3.0293 7.95703 2.88086c21.9736 -1.30176 95.082 -6.91211 113.365 -24.2354z
M66.8799 160.003c7.93652 25.0459 33.5146 108.054 39.168 154.774c-13.4395 6.52734 -50.4316 12.416 -84.7148 15.125v-169.899h45.5469zM501.333 330.67c5.8877 0 10.667 -4.75684 10.667 -10.666v-192c0 -5.8877 -4.7793 -10.667 -10.667 -10.667h-64
c-4.7998 0 -9.00293 3.2002 -10.2832 7.8291c-7.93555 28.7568 -49.2158 146.645 -62.3994 167.872c-1.60059 2.60156 -2.02637 5.73828 -1.17383 8.66113c0.853516 2.92285 2.92383 5.33398 5.69629 6.63477c1.94141 0.896484 48.4053 22.3359 132.16 22.3359z
M490.667 138.67v170.538c-50.752 -1.19434 -85.7178 -10.6885 -101.995 -16.2129c16.6611 -35.498 46.5283 -121.386 56.6396 -154.325h45.3555z" />
    <glyph glyph-name="uniF10B" unicode="&#xf10b;" 
d="M361.65 82.2861c80.6611 0 146.286 -65.626 146.286 -146.286h-16.2539c0 36.7422 -15.3848 69.9082 -39.9766 93.582c-21.3662 -26.4365 -33.166 -59.5547 -33.166 -93.582h-16.2539c0 5.44531 0.34082 10.8662 0.876953 16.2539h-139.036v-16.2539h-16.2539v16.2539
h-139.036c0.536133 -5.3877 0.876953 -10.8086 0.876953 -16.2539h-16.2539c0 34.0273 -11.7998 67.1455 -33.166 93.582c-24.5918 -23.6738 -39.9766 -56.8398 -39.9766 -93.582h-16.2539c0 58.3359 34.4092 108.666 83.9277 132.137l-23.7559 23.7471
c-3.85156 -0.975586 -7.67969 -1.4707 -11.4102 -1.4707c-26.8916 0 -48.7617 21.8691 -48.7617 48.7617c0 5.35547 1.01562 10.8984 3.01465 16.4736l4.33984 12.0439l25.1533 -25.1533l12.8896 12.8896l-25.1445 25.1533l12.0439 4.33984
c33.54 12.0352 65.2266 -13.499 65.2266 -45.7471c0 -3.73047 -0.495117 -7.55859 -1.4707 -11.4102l45.6982 -45.7061c1.51953 0.0400391 3.00684 0.227539 4.53516 0.227539h73.1426v3.75391c-16.1562 3.65723 -31.3457 9.93945 -45.3164 18.7412l-14.1162 -14.125
l-45.9746 45.9746l14.125 14.1162c-8.80176 13.9707 -15.0918 29.1602 -18.7412 45.3164h-20.0088v48.7617h-32.5078v16.2539h16.2539c0 84.4883 59.2783 157.168 141.499 174.633c4.21777 7.30664 12.0195 12.2881 21.041 12.2881h32.5078
c9.02148 0 16.8232 -4.98145 21.041 -12.2881c82.2207 -17.4648 141.499 -90.1445 141.499 -174.633h16.2539v-16.2539h-32.5078v-48.7617h-20.0088c-3.65723 -16.1562 -9.93945 -31.3457 -18.7412 -45.3164l14.125 -14.1162l-45.9746 -45.9746l-14.1162 14.125
c-13.9707 -8.80176 -29.1602 -15.0918 -45.3164 -18.7412v-3.75391h73.1426zM93.46 261.079h13.9873l8.12695 -24.3809h280.852l8.12695 24.3809h13.9873c0 74.4756 -50.6807 138.866 -121.905 157.185v-92.168h-16.2539v97.5234
c0 4.48633 -3.64062 8.12695 -8.12695 8.12695h-32.5078c-4.48633 0 -8.12695 -3.64062 -8.12695 -8.12695v-97.5234h-16.2539v92.168c-71.2246 -18.3184 -121.905 -82.709 -121.905 -157.185zM328.663 220.444h-145.326
c4.05469 -36.5146 35.0762 -65.0156 72.6631 -65.0156s68.6084 28.501 72.6631 65.0156zM181.769 121.889c15.4326 -10.7441 32.6865 -17.8799 51.2812 -21.1953l6.69629 -1.19434v-17.2129h32.5078v17.2129l6.69629 1.18652
c18.6035 3.31543 35.8564 10.4512 51.2812 21.1953l5.58398 3.89258l12.1328 -12.1416l22.9912 22.9912l-12.1416 12.1328l3.89355 5.58398c10.7432 15.4326 17.8789 32.6865 21.1943 51.2812l1.1875 6.69629h17.2129v8.12695h-57.3037
c-4.12012 -45.4951 -42.4307 -81.2695 -88.9824 -81.2695s-84.8623 35.7744 -88.9824 81.2695h-57.3037v-8.12695h17.2129l1.1875 -6.68848c3.31543 -18.6025 10.4512 -35.8564 21.1943 -51.2812l3.89355 -5.58301l-12.1416 -12.1338l22.9912 -22.9912l12.1328 12.1416z
M68.6406 110.47l35.71 -35.7178c6.67188 2.21875 13.5557 3.92578 20.6104 5.16895l-43.4307 43.4307l1.73926 4.85938c1.38965 3.85254 2.06348 7.43652 2.06348 10.9639c0 16.7256 -12.6943 30.541 -28.9482 32.3213l16.0596 -16.0674l-35.873 -35.873l-16.0674 16.0596
c1.78027 -16.2539 15.5957 -28.9482 32.3213 -28.9482c3.52734 0 7.11133 0.673828 10.9551 2.06348zM247.873 -31.4922v5.41309l-69.0791 92.1113h-28.4443c-29.1113 0 -55.9307 -9.73633 -77.6211 -25.958c16.9121 -20.8535 28.3711 -45.4785 33.6211 -71.5664h141.523z
M256 -9.81738l56.8887 75.8496h-24.3809h-65.0156h-24.3809zM405.65 -31.4922c5.25781 26.0879 16.709 50.7129 33.6211 71.5664c-21.6904 16.2217 -48.5098 25.958 -77.6211 25.958h-28.4443l-69.0791 -92.1113v-5.41309h141.523zM125.968 261.079v16.2539h260.064
v-16.2539h-260.064z" />
    <glyph glyph-name="uniF11A" unicode="&#xf11a;" 
d="M374.45 115.537c42.3838 -1.4375 76.4238 -36.3408 76.4248 -79.0693v-88.9404c0 -6.36719 -5.16309 -11.5283 -11.5293 -11.5283h-101.232h-164.228h-101.23c-6.36719 0 -11.5283 5.16113 -11.5283 11.5283v88.9404c0 42.7266 34.043 77.6289 76.4248 79.0674
c0.40625 0.0439453 59.3223 -1.71191 68.1123 61.5527c-28.6084 19.9473 -49.5889 56.4824 -55.3066 100.577c-1.13184 1.08203 -2.07324 2.39648 -2.70508 3.9375c-2.33398 5.69824 -4.30273 11.6621 -5.85059 17.7314c-7.32617 28.7295 -5.07812 58.458 6.32812 83.7119
c11.749 26.0098 31.7646 44.2471 56.3623 51.3545c5.14453 1.48535 10.5098 2.44824 15.9844 2.86621c14.3525 7.125 29.5488 10.7334 45.2119 10.7334c59.8896 0 108.61 -52.5469 108.61 -117.135c0 -16.8281 -3.23926 -33.0742 -9.62598 -48.2891
c-0.675781 -1.60938 -1.67969 -2.97461 -2.89258 -4.07129c-3.53027 -28.251 -13.4404 -54.3691 -28.8203 -75.1885c-7.90625 -10.7021 -16.8799 -19.5225 -26.6172 -26.3164c8.76367 -63.1582 67.7002 -61.4189 68.1074 -61.4629zM210.893 412.249
c-37.7168 -10.8975 -58.6338 -58.251 -47.0439 -105.95c12.4561 13.0693 21.5352 29.1855 26.0879 46.6816c1.54688 5.93848 6.69629 10.1885 12.8164 10.5781c6.09766 0.383789 11.7002 -3.15527 13.9717 -8.81348c1.46777 -3.6582 3.92383 -6.84473 7.10059 -9.21582
c3.7207 -2.77832 8.1582 -4.24609 12.833 -4.24609h78.5703c14.0391 0 26.7529 -5.77539 35.9023 -15.0674c0.0683594 1.54297 0.112305 3.0918 0.112305 4.64941c0 51.875 -38.3799 94.0781 -85.5537 94.0781c-12.7129 0 -25.0762 -3.10938 -36.7471 -9.24121
c-1.49902 -0.788086 -3.15234 -1.23535 -4.84375 -1.31152c-4.55566 -0.205078 -8.99902 -0.925781 -13.2061 -2.1416zM200.863 212.86c15.3652 -18.7734 34.9551 -29.1123 55.1543 -29.1113c46.4141 0 84.1748 52.9453 84.1748 118.023
c0 0.0810547 0.0117188 0.15918 0.0126953 0.241211c-4.27637 9.54297 -13.8584 16.2109 -24.9746 16.2109h-78.5713c-9.68457 0 -18.8906 3.05371 -26.626 8.82617c-1.24609 0.931641 -2.43945 1.92188 -3.5752 2.9707
c-7.4873 -17.8965 -18.9873 -34.0303 -33.5342 -46.9951c3.11426 -27.0938 12.9385 -51.8408 27.9395 -70.166zM227.352 165.767c-4.20801 -22.0039 -16.4307 -41.1846 -33.5107 -54.3945l60.5498 -86.2285c0.394531 -0.560547 0.943359 -0.84668 1.63086 -0.84668
s1.23633 0.285156 1.63184 0.847656l60.5352 86.208c-17.0791 13.1953 -29.3066 32.3623 -33.5273 54.3535c-9.19922 -3.30273 -18.8086 -5.01465 -28.6436 -5.01465c-9.91406 0 -19.5264 1.76855 -28.666 5.0752zM427.817 -40.9434v77.4121
c0 30.9219 -25.1562 56.0791 -56.0781 56.0791c-0.419922 0 -16.8828 0 -33.6006 7.09961l-61.6172 -87.7529c-4.68457 -6.67188 -12.3496 -10.6543 -20.5 -10.6543h-0.00195312c-8.15137 0 -15.8154 3.98242 -20.5 10.6543l-61.6289 87.7666
c-14.6572 -6.66113 -33.209 -7.1123 -33.6289 -7.1123c-30.9219 0 -56.0791 -25.1572 -56.0791 -56.0791v-77.4131h89.7031h164.228h89.7041z" />
    <glyph glyph-name="uniF117" unicode="&#xf117;" 
d="M212.552 448c14.5654 -0.0166016 26.3682 -11.8203 26.3857 -26.3857v-134.92c-0.0175781 -14.5654 -11.8203 -26.3682 -26.3857 -26.3857h-186.108c-14.5654 0.0175781 -26.3691 11.8203 -26.3857 26.3857v134.92c0.0166016 14.5654 11.8203 26.3691 26.3857 26.3857
h186.108zM221.874 328.561v51.1885h-34.125c-9.41895 -0.0107422 -17.0527 -7.64453 -17.0635 -17.0635v-17.0625c0.0107422 -9.41895 7.64453 -17.0518 17.0635 -17.0625h34.125zM221.874 396.812v24.8027c-0.00488281 5.14648 -4.17578 9.31738 -9.32227 9.32324h-186.108
c-5.14648 -0.00585938 -9.31738 -4.17676 -9.32324 -9.32324v-134.92c0.00585938 -5.14648 4.17676 -9.31738 9.32324 -9.32227h186.108c5.14648 0.00488281 9.31738 4.17578 9.32227 9.32227v24.8027h-34.125c-18.8389 0.0205078 -34.1055 15.2871 -34.126 34.126v17.0625
c0.0205078 18.8389 15.2871 34.1055 34.126 34.126h34.125zM187.749 345.623v17.0625h17.0625v-17.0625h-17.0625zM34.1836 362.686v17.0635h17.0625v-17.0635h-17.0625zM34.1836 328.561v17.0625h17.0625v-17.0625h-17.0625zM34.1836 396.812v17.0625h17.0625v-17.0625
h-17.0625zM34.1836 294.435v17.0625h17.0625v-17.0625h-17.0625zM420.999 157.421c4.43262 -1.60645 6.72363 -6.50293 5.11719 -10.9355l-37.2285 -102.377c-1.22754 -3.37207 -4.43262 -5.61621 -8.01953 -5.61621h-131.916c-3.63281 0 -6.86719 2.2998 -8.05664 5.73242
l-35.6094 102.377c-0.907227 2.60547 -0.496094 5.49023 1.10352 7.73926c1.59863 2.25488 4.19043 3.59277 6.95312 3.59082h204.754c0.990234 -0.000976562 1.97168 -0.173828 2.90234 -0.510742zM374.894 55.5547l31.0225 85.3145h-180.571l29.6719 -85.3145h119.877z
M469.285 183.526h42.6572v-17.0635h-36.709l-57.6611 -156.515c-1.23633 -3.35352 -4.43262 -5.58301 -8.00684 -5.58203h-25.5938v-18.6348c7.28711 -2.57617 13.0215 -8.30957 15.5986 -15.5986c4.71191 -13.3262 -2.27148 -27.9492 -15.5986 -32.6611
c-13.3262 -4.71289 -27.9492 2.27246 -32.6621 15.5986c-4.71191 13.3262 2.27148 27.9502 15.5986 32.6611v18.6348h-76.7822v-18.6348c7.28809 -2.57617 13.0215 -8.30957 15.5986 -15.5986c4.71191 -13.3262 -2.27148 -27.9492 -15.5986 -32.6611
c-13.3262 -4.71289 -27.9502 2.27148 -32.6621 15.5986c-4.71191 13.3262 2.27148 27.9502 15.5986 32.6611v18.6348h-42.6572v17.0635h173.212l57.6611 156.515c1.23633 3.35449 4.43262 5.58301 8.00684 5.58203zM281.595 -46.8223
c4.70898 0.00488281 8.52637 3.82227 8.53125 8.53125c0 4.71191 -3.82031 8.53223 -8.53125 8.53223c-4.71191 0 -8.53223 -3.82031 -8.53223 -8.53223c0 -4.71094 3.82031 -8.53125 8.53223 -8.53125zM375.439 -46.8223
c4.70996 0.00488281 8.52734 3.82227 8.53223 8.53125c0 4.71191 -3.82031 8.53223 -8.53223 8.53223c-4.71094 0 -8.53125 -3.82031 -8.53125 -8.53223c0 -4.71094 3.82031 -8.53125 8.53125 -8.53125zM264.531 106.743v17.0635h102.377v-17.0635h-102.377z
M273.062 72.6182v17.0625h85.3145v-17.0625h-85.3145zM324.251 260.309c23.5586 0 42.6572 -19.0986 42.6572 -42.6572c0 -23.5576 -19.0986 -42.6562 -42.6572 -42.6562c-23.5576 0 -42.6562 19.0986 -42.6562 42.6562c0.0273438 23.5479 19.1084 42.6299 42.6562 42.6572z
M324.251 192.058c14.1357 0 25.5947 11.459 25.5947 25.5938c-0.0146484 14.1299 -11.4648 25.5801 -25.5947 25.5947c-14.1348 0 -25.5938 -11.459 -25.5938 -25.5947c0 -14.1348 11.459 -25.5938 25.5938 -25.5938zM343.813 317.529l12.0635 -12.0635l-25.5938 -25.5947
l-0.0546875 0.0546875c-0.767578 -0.80957 -1.68945 -1.45703 -2.71094 -1.9043c-3.18848 -1.32129 -6.8584 -0.591797 -9.29785 1.84863l-25.5947 25.5947l12.0635 12.0645l11.0312 -11.0312v39.125h-59.7197v17.0625h68.251h0.00488281
c4.70996 -0.000976562 8.52832 -3.82031 8.52734 -8.53125v-47.6562zM42.7148 72.6182h145.035v-17.0635h-153.565h-0.00488281c-4.70996 0.000976562 -8.52832 3.82129 -8.52637 8.53125v150.034l-11.0312 -11.0312l-12.0645 12.0635l25.5938 25.5938
c0.000976562 0.000976562 0.00195312 0.00195312 0.00292969 0.00390625c3.33105 3.3291 8.73145 3.32812 12.0605 -0.00390625l25.5947 -25.5938l-12.0635 -12.0645l-11.0312 11.0312v-141.501z" />
    <glyph glyph-name="uniF10C" unicode="&#xf10c;" 
d="M256.002 140.843l152.734 47.0098v-77.6611c0.00488281 -0.279297 0.0986328 -0.566406 0.0986328 -0.852539c0 -36.2969 -68.416 -65.7256 -152.787 -65.7256c-84.377 0 -152.781 29.4287 -152.781 65.7256v32.2637v46.25zM0 241.898l256.001 98.4893l255.999 -98.4902
l-103.266 -36.9326l-152.733 -47.0098l-152.735 47.0098l-12.4424 4.44531l26.9023 8.74805l2.54883 6.27539l-36.082 -8.13965v-9.04199l-6.44141 -108.634c-24.2393 -14.4648 -48.4893 0 -48.4893 0c-5.70605 39.7334 33.1436 120.952 33.1484 120.952l2.50684 7.41992
l17.2002 4.07812l-2.85742 2.97461l-20.0459 -1.7041l-4.64941 -9.95898z" />
    <glyph glyph-name="uniF11C" unicode="&#xf11c;" 
d="M256 448l224.606 -32.5928v-479.407l-224.606 32.5928l-224.606 -32.5928v479.407zM240.806 -2.90723v417.995l-179.024 -25.9766v-417.995zM450.219 -28.8838v417.996l-179.024 25.9766v-417.996zM305.37 227.404l110.672 -16.0596v-204.481l-110.672 16.0586v204.482z
M385.654 41.9785v143.07l-49.8975 7.23926v-143.07zM95.958 211.346l110.672 16.0596v-204.484l-110.672 -16.0586v204.483zM176.243 49.2168v143.07l-49.8975 -7.23926v-143.07zM414.244 332.258l-111.481 16.1768l4.36328 30.0713l111.481 -16.1768zM414.243 282.19
l-111.481 16.1768l4.36328 30.0713l111.481 -16.1768zM414.273 232.092l-111.481 16.1768l4.36328 30.0713l111.481 -16.1777zM97.7334 332.271l-4.36328 30.0703l111.481 16.1777l4.36328 -30.0713zM97.7305 282.185l-4.36328 30.0713l111.481 16.1768l4.36328 -30.0713z
M97.7246 232.106l-4.36426 30.0713l111.481 16.1768l4.36426 -30.0713z" />
    <glyph glyph-name="uniF106" unicode="&#xf106;" 
d="M486.729 -47.5781c4.53613 0 8.21094 -3.67578 8.21191 -8.21289c0 -4.53613 -3.6748 -8.21094 -8.21094 -8.21094h-461.46c-4.53516 0 -8.21094 3.6748 -8.21094 8.21094s3.67578 8.21094 8.21094 8.21094h55.8076v16.8242c0 38.5303 10.2754 68.2676 30.5391 88.3877
c25.8271 25.6426 58.2617 25.6768 59.623 25.6992h41.0752v24.8896c0 0.433594 0.0439453 0.857422 0.108398 1.27344c-5.55566 2.2959 -10.6689 4.92188 -15.3916 7.77246c-15.5635 -7.81836 -30.5664 -10.6201 -44.0479 -10.6211
c-32.6328 -0.00195312 -56.3779 16.3555 -57.7686 17.334c-2.18457 1.53809 -3.48242 4.04199 -3.48242 6.71289v163.138c0 53.8271 18.4082 94.8076 54.7109 121.804c28.0664 20.8721 66.9736 32.3662 109.556 32.3662s81.4893 -11.4941 109.556 -32.3652
c36.3027 -26.9951 54.7109 -67.9766 54.7109 -121.804v-163.136c0 -2.67188 -1.2998 -5.17578 -3.4834 -6.71387c-1.39062 -0.978516 -25.1406 -17.332 -57.7686 -17.334c-13.4834 0 -28.4795 2.80078 -44.0479 10.6221
c-4.72363 -2.85254 -9.83691 -5.47754 -15.3936 -7.77344c0.0664062 -0.416016 0.109375 -0.839844 0.109375 -1.27344v-24.8896h41.1338c1.32715 -0.0361328 33.7412 -0.0595703 59.5645 -25.6992c20.2646 -20.1201 30.5391 -49.8574 30.5391 -88.3877v-16.8242h55.8096z
M340.876 66.9102h-29.9463l4.67676 -26.7822c0.579102 -3.32227 -0.930664 -6.66016 -3.80762 -8.41797l-14.8799 -9.0957l-8.56152 -9.88574c-1.58691 -1.83203 -3.86621 -2.83496 -6.20801 -2.83496c-0.849609 0 -1.70801 0.130859 -2.54395 0.40332l-15.3945 5.02051
v-62.8955h27.2012v44.5088c0 4.53613 3.6748 8.21094 8.21094 8.21094h34.5127v12.9629c0 4.53613 3.6748 8.21094 8.21094 8.21094s8.21094 -3.6748 8.21094 -8.21094v-12.9629h34.5127c4.53613 0 8.21191 -3.6748 8.21191 -8.21094v-44.5088h21.2168v16.8242
c0 33.9941 -8.64258 59.8105 -25.6875 76.7334c-21.0137 20.8652 -47.6738 20.9258 -47.9355 20.9307zM376.859 -11.2803h-69.0264v-36.2979h69.0264v36.2979zM216.785 55.8779l-2.28223 -13.0723l11.2012 -6.84668c0.72168 -0.441406 1.37109 -0.991211 1.9248 -1.63086
l5.82812 -6.72852l14.1875 4.62793c-13.5732 2.64062 -24.9199 11.582 -30.8594 23.6504zM295.918 57.4111c-5.62695 -12.6533 -17.0898 -22.1592 -30.957 -25.0645l14.5537 -4.74609l5.82715 6.72852c0.552734 0.639648 1.20312 1.18945 1.92383 1.63086l11.2021 6.84668z
M173.44 162.655c18.4014 -28.2432 45.9229 -43.7744 81.7969 -46.167h1.52539c36.0996 2.4043 63.7275 18.1074 82.124 46.6729c12.6709 19.6738 16.4004 38.7363 16.9795 42.0859v92.8662c-28.3516 10.9355 -42.959 31.1396 -49.7637 44.125
c-18.8018 -17.2402 -42.2871 -29.9971 -69.9883 -37.9971c-26.9023 -7.76758 -52.3047 -9.39844 -68.8779 -9.39844c-4.30762 0 -8.04688 0.110352 -11.1025 0.253906v-89.8389c0.591797 -3.36133 4.45898 -22.8838 17.3066 -42.6025zM108.155 135.236
c9.91992 -5.73242 39.5254 -19.7578 73.498 -6.80957c-9.63379 8.31738 -16.9268 17.4258 -22.3486 25.8438c-15.8008 24.5352 -19.3662 48.1465 -19.5088 49.1396c-0.0576172 0.389648 -0.0859375 0.78418 -0.0859375 1.17773v99.3359
c0 2.34375 1.00293 4.57715 2.75586 6.13574c1.75391 1.55859 4.09082 2.29492 6.41699 2.01855c0.0625 -0.0078125 7.12598 -0.8125 18.3516 -0.8125c77.0928 0 118.055 31.8838 135.611 50.8887c2.01074 2.17676 5.03711 3.10352 7.9248 2.41895
c2.88477 -0.683594 5.17676 -2.87012 5.99707 -5.71875c0.408203 -1.375 10.6748 -34.5771 49.8125 -47.1113c3.40039 -1.08984 5.70801 -4.25 5.70801 -7.82031v-99.3359c0 -0.393555 -0.0292969 -0.788086 -0.0859375 -1.17773
c-0.142578 -0.993164 -3.70703 -24.6045 -19.5088 -49.1396c-5.41992 -8.41699 -12.709 -17.5215 -22.3398 -25.8379c33.7549 -12.7891 63.5771 1.19141 73.4912 6.83496v158.563c0 48.3506 -16.1807 84.8975 -48.0889 108.627
c-25.2529 18.7793 -60.6807 29.1211 -99.7559 29.1211s-74.502 -10.3418 -99.7559 -29.1201c-31.9092 -23.7285 -48.0889 -60.2764 -48.0889 -108.627v-158.595zM254.438 100.084c-9.30566 0.603516 -17.8438 2.00586 -25.6973 4.0166v-28.9785v-0.0117188v-0.0107422
c0 -15.0312 12.2266 -27.2588 27.2559 -27.2588s27.2559 12.2266 27.2559 27.2588c0 0.0703125 0.00878906 0.140625 0.0107422 0.210938v28.7891c-7.85352 -2.00977 -16.3926 -3.41211 -25.6982 -4.01562c-0.175781 -0.0117188 -0.353516 -0.0175781 -0.53125 -0.0175781
h-2.06445c-0.177734 0 -0.354492 0.00585938 -0.53125 0.0175781zM97.502 -30.7539v-16.8242h150.287v62.5801l-14.4258 -4.70508c-0.835938 -0.272461 -1.69434 -0.40332 -2.54395 -0.40332c-2.3418 0 -4.62012 1.00293 -6.20801 2.83496l-8.56152 9.88574l-14.8789 9.0957
c-2.87695 1.75781 -4.38672 5.0957 -3.80664 8.41797l4.67578 26.7822h-30.8564c-3.03711 -0.000976562 -73.6816 -1.12598 -73.6816 -97.6641zM187.916 257.505c0 5.41211 4.3877 9.7998 9.7998 9.7998s9.79883 -4.3877 9.79883 -9.7998s-4.38672 -9.7998 -9.79883 -9.7998
s-9.7998 4.3877 -9.7998 9.7998zM304.485 257.505c0 5.41211 4.38672 9.7998 9.79883 9.7998s9.7998 -4.3877 9.7998 -9.7998s-4.3877 -9.7998 -9.7998 -9.7998s-9.79883 4.3877 -9.79883 9.7998zM254.578 204.535c-8.78711 0 -15.9365 7.14844 -15.9355 15.9365
c0 4.53613 3.67676 8.21094 8.21094 8.21094c4.37207 0 7.94629 -3.41602 8.19727 -7.72461h1.8877v19.0215c0 4.53516 3.6748 8.21094 8.21094 8.21094s8.21094 -3.67578 8.21094 -8.21094v-19.5078c0 -0.28418 -0.015625 -0.564453 -0.0429688 -0.841797
c-0.442383 -8.39551 -7.38965 -15.0947 -15.8926 -15.0947h-2.84668zM326.875 -37.915c-4.53613 0 -8.21094 3.67578 -8.21094 8.21094c0 4.53613 3.67578 8.21094 8.21094 8.21094h30.9434c4.53613 0 8.21094 -3.6748 8.21094 -8.21094
c0 -4.53516 -3.6748 -8.21094 -8.21094 -8.21094h-30.9434zM306.902 171.314c-1.40234 -1.73926 -14.6924 -16.9932 -48.8799 -16.9922c-34.0371 0 -51.3457 15.4238 -52.0664 16.0801c-3.34961 3.05469 -3.59082 8.24902 -0.535156 11.5996
c3.04102 3.33594 8.20215 3.58984 11.5537 0.577148c0.661133 -0.579102 13.9023 -11.8359 41.0479 -11.8359c26.1455 0 36.0088 10.7715 36.0967 10.8799c2.84668 3.53223 8.01562 4.08398 11.5459 1.2373c3.53125 -2.84766 4.08496 -8.01562 1.2373 -11.5459z" />
    <glyph glyph-name="uniF101" unicode="&#xf101;" 
d="M0 -15.2422v18.2871h512v-18.2871h-512zM65.4082 57.2217c-10.5391 -10.5439 -27.6318 -10.5439 -38.1816 0c-10.5381 10.5381 -10.5381 27.6318 0 38.1807l77.6797 77.6699c6.65625 6.64551 15.9102 9.09277 24.4746 7.36523l18.0859 18.0801
c-30.5605 40.8105 -27.3066 99.082 9.76562 136.16c40.6504 40.6553 106.805 40.6553 147.461 0c40.6504 -40.6514 40.6504 -106.801 0 -147.451c-37.083 -37.083 -95.3604 -40.3252 -136.165 -9.77051l-18.0752 -18.0908
c1.72266 -8.57617 -0.714844 -17.8242 -7.37012 -24.4688zM178.299 313.605c-29.0508 -29.04 -29.0508 -76.2773 0 -105.323c29.0342 -29.04 76.2881 -29.04 105.328 0c29.0293 29.0352 29.04 76.2881 0 105.323c-29.04 29.04 -76.2939 29.04 -105.328 0zM434.778 15.2373
v384h39.6221v-384h-39.6221zM392.112 336.576v-321.344h-39.627v212.778c2.56543 10.0801 4.02148 20.5068 4.02148 31.1895c0 10.6768 -1.4668 21.1035 -4.02148 31.1836v46.1924h39.627zM266.544 15.2373v123.53c14.2725 4.1875 27.6162 10.9814 39.6162 19.9902v-143.521
h-39.6162zM177.248 15.2373v123.43h18.5391c6.8584 -1.98926 13.8877 -3.4082 21.082 -4.19727v-119.232h-39.6211zM86.7305 15.2373v31.3867l30.3311 30.3359h9.28027v-61.7227h-39.6113z" />
    <glyph glyph-name="uniF119" unicode="&#xf119;" 
d="M400.695 402.91c62.3086 -5.64258 111.305 -58.1113 111.305 -121.866c0 -37.9443 -17.3525 -71.9033 -44.5215 -94.375v-172.756c0 -4.10742 -2.25977 -7.88086 -5.87695 -9.81738c-1.64746 -0.878906 -3.4502 -1.31348 -5.25391 -1.31348
c-2.15918 0 -4.30762 0.634766 -6.17676 1.87012l-49.4756 32.9795v-90.501c0 -6.15527 -4.98633 -11.1309 -11.1299 -11.1309h-378.435c-6.14453 0 -11.1309 4.97559 -11.1309 11.1309v489.738c0 6.15527 4.98633 11.1309 11.1309 11.1309h378.435
c6.14355 0 11.1299 -4.97559 11.1299 -11.1309v-33.959zM22.2607 425.739v-44.5215h297.127c17.0293 11.9648 37.209 19.7119 59.0469 21.6924v22.8291h-356.174zM378.435 -41.7393v79.3711l-49.4854 -32.9795c-3.41699 -2.27051 -7.81348 -2.49316 -11.4199 -0.556641
c-3.61719 1.93652 -5.87695 5.70996 -5.87695 9.81738v172.756c-5.99902 4.96387 -11.5088 10.4736 -16.4619 16.4619h-217.277c-6.14355 0 -11.1309 4.97461 -11.1309 11.1299v89.0439c0 6.15527 4.9873 11.1299 11.1309 11.1299h193.959
c4.68555 16.5068 12.666 31.6328 23.3184 44.5215h-272.93v-400.695h356.174zM280.643 225.392c-8.57031 16.7178 -13.5117 35.6064 -13.5117 55.6523c0 3.76172 0.233398 7.45703 0.567383 11.1299h-178.654v-66.7822h191.599zM445.218 34.7051v137.416
c-16.7188 -8.57031 -35.6064 -13.5127 -55.6523 -13.5127s-38.9346 4.94238 -55.6523 13.5127v-137.416l49.4746 32.9902c0.378906 0.245117 0.8125 0.367188 1.21289 0.567383c0.368164 0.189453 0.712891 0.378906 1.10254 0.523438
c2.50391 0.93457 5.21973 0.93457 7.72461 0c0.389648 -0.144531 0.734375 -0.333984 1.10156 -0.523438c0.400391 -0.200195 0.834961 -0.311523 1.21289 -0.567383zM389.565 180.869c55.2295 0 100.174 44.9336 100.174 100.175
c0 55.2402 -44.9443 100.174 -100.174 100.174s-100.174 -44.9336 -100.174 -100.174c0 -55.2412 44.9443 -100.175 100.174 -100.175zM389.565 336.695c30.6865 0 55.6523 -24.9648 55.6523 -55.6514c0 -30.6875 -24.9658 -55.6523 -55.6523 -55.6523
s-55.6523 24.9648 -55.6523 55.6523c0 30.6865 24.9658 55.6514 55.6523 55.6514zM389.565 247.652c18.4092 0 33.3906 14.9814 33.3906 33.3916c0 18.4092 -14.9814 33.3906 -33.3906 33.3906c-18.4102 0 -33.3916 -14.9814 -33.3916 -33.3906
c0 -18.4102 14.9814 -33.3916 33.3916 -33.3916zM256 158.608c6.14355 0 11.1309 -4.97461 11.1309 -11.1299s-4.9873 -11.1309 -11.1309 -11.1309h-178.087c-6.14355 0 -11.1309 4.97559 -11.1309 11.1309s4.9873 11.1299 11.1309 11.1299h178.087zM256 91.8262
c6.14355 0 11.1309 -4.97559 11.1309 -11.1309s-4.9873 -11.1299 -11.1309 -11.1299h-178.087c-6.14355 0 -11.1309 4.97461 -11.1309 11.1299s4.9873 11.1309 11.1309 11.1309h178.087zM256 25.0439c6.14355 0 11.1309 -4.97559 11.1309 -11.1309
s-4.9873 -11.1309 -11.1309 -11.1309h-178.087c-6.14355 0 -11.1309 4.97559 -11.1309 11.1309s4.9873 11.1309 11.1309 11.1309h178.087z" />
    <glyph glyph-name="uniF114" unicode="&#xf114;" 
d="M356 19c5.51953 0 10 -4.48047 10 -10s-4.48047 -10 -10 -10s-10 4.48047 -10 10s4.48047 10 10 10zM156 19c5.51953 0 10 -4.48047 10 -10s-4.48047 -10 -10 -10s-10 4.48047 -10 10s4.48047 10 10 10zM447.645 70.79c12.0088 -18.5859 18.3555 -39.9531 18.3555 -61.79
v-63c0 -5.52246 -4.47656 -10 -10 -10h-400c-5.52344 0 -10 4.47754 -10 10v63c0 21.8369 6.34668 43.2041 18.3555 61.791c11.2568 17.4229 26.7246 31.2676 44.8477 40.21c1.52734 1.41895 3.49316 2.36914 5.67676 2.61328
c13.1064 5.5625 26.9219 8.38574 41.1201 8.38574h30v26.3906c-2.75488 2.36621 -5.41699 4.86035 -7.92773 7.47852c-13.3633 13.9209 -22.9424 30.7734 -27.9941 49.1309h-4.07812c-22.0557 0 -40 17.9443 -40 40c0 10.4561 4.03809 19.9844 10.6299 27.1182
c-6.49609 5.50684 -10.6299 13.7188 -10.6299 22.8818c0 8.00977 3.12109 15.543 8.78906 21.2109c3.30762 3.30664 7.25293 5.74023 11.5547 7.19922c3.53906 45.9775 35.8096 85.2666 80.2402 97.582c2.63281 13.752 13.9824 27.0078 29.416 27.0078h40
c15.4336 0 26.7832 -13.2559 29.416 -27.0078c44.4346 -12.3164 76.708 -51.6123 80.2412 -97.5957c11.8164 -4.03027 20.3428 -15.2334 20.3428 -28.3965c0 -8.00977 -3.12109 -15.543 -8.78906 -21.2109c-0.589844 -0.588867 -1.2041 -1.14551 -1.83301 -1.67871
c6.58789 -7.13477 10.6221 -16.6582 10.6221 -27.1104c0 -22.0557 -17.9443 -40 -40 -40h-4.10645c-6.05176 -21.9912 -18.5322 -41.7207 -35.8936 -56.6172v-26.3828h30c14.1973 0 28.0127 -2.82324 41.1201 -8.38672c2.18457 -0.243164 4.14941 -1.19434 5.67773 -2.61328
c18.1211 -8.94141 33.5898 -22.7861 44.8467 -40.21zM106 -44v129.878c-24.418 -17.3066 -40 -46.4609 -40 -76.8779v-53h40zM366 225c11.0283 0 20 8.97168 20 20s-8.97168 20 -20 20v-30c0 -3.33398 -0.158203 -6.67285 -0.456055 -10h0.456055zM206 399.861
c-32.29 -11.4277 -55.5996 -40.6475 -59.4414 -74.8613h218.883c-3.8418 34.2139 -27.1514 63.4336 -59.4414 74.8613v-44.8613c0 -5.52344 -4.47656 -10 -10 -10s-10 4.47656 -10 10v57.9365v0.078125v1.98535c0 6.19629 -5.23438 13 -10 13h-40
c-4.76562 0 -10 -6.80371 -10 -13v-1.98535v-0.078125v-57.9365c0 -5.52344 -4.47656 -10 -10 -10s-10 4.47656 -10 10v44.8613zM146 225h0.456055c-0.297852 3.32617 -0.456055 6.66602 -0.456055 10v30c-11.0283 0 -20 -8.97168 -20 -20s8.97168 -20 20 -20zM146 285h10
h200h10h10c2.66797 0 5.17871 1.04102 7.06934 2.93164c1.88965 1.88965 2.93066 4.40039 2.93066 7.06836c0 5.51367 -4.48633 10 -10 10h-240c-2.66797 0 -5.17773 -1.04102 -7.06934 -2.93164c-1.88965 -1.88965 -2.93066 -4.40039 -2.93066 -7.06836
c0 -5.51367 4.48633 -10 10 -10h10zM167.817 216.817c3.54004 -17.6797 12.0713 -33.96 24.6865 -47.1025c3.14844 -3.2832 6.56055 -6.35156 10.1455 -9.12598c15.6602 -12.165 34.1035 -18.5889 53.3506 -18.5889s37.6904 6.42383 53.3359 18.5781
c18.0098 13.9658 30.3779 33.9336 34.8467 56.2412c0.0205078 0.108398 0.0390625 0.217773 0.0634766 0.325195c1.16113 5.87402 1.75391 11.8779 1.75391 17.8555v30h-180v-30c0 -5.9834 0.592773 -11.9902 1.75391 -17.8594
c0.0244141 -0.106445 0.0429688 -0.214844 0.0634766 -0.323242zM246 -44v89l-54.2852 57h-25.7148v-63c0 -5.52344 -4.47656 -10 -10 -10s-10 4.47656 -10 10v62.4082c-6.82422 -0.804688 -13.5098 -2.43555 -20 -4.88184v-140.526h20v23c0 5.52344 4.47656 10 10 10
s10 -4.47656 10 -10v-23h80zM206 116l50 -52.5l50 52.5v18.625c-15.4287 -8.29297 -32.4258 -12.625 -50 -12.625c-17.5732 0 -34.5693 4.33105 -50 12.626v-18.626zM386 -44v140.525c-6.49121 2.44629 -13.1758 4.07812 -20 4.88281v-62.4082
c0 -5.52344 -4.47656 -10 -10 -10s-10 4.47656 -10 10v63h-25.7148l-54.2852 -57v-89h80v23c0 5.52344 4.47656 10 10 10s10 -4.47656 10 -10v-23h20zM446 -44v53c0 30.418 -15.582 59.5723 -40 76.8789v-129.879h40z" />
    <glyph glyph-name="uniF118" unicode="&#xf118;" 
d="M297.173 271.445c4.14355 0 7.5 -3.35742 7.5 -7.5c0 -4.14355 -3.35645 -7.5 -7.5 -7.5h-82.3467c-4.14355 0 -7.5 3.35645 -7.5 7.5c0 4.14258 3.35645 7.5 7.5 7.5h82.3467zM504.5 68.6982c4.1416 0 7.5 -3.35938 7.49902 -7.49902v-73.1016
c0 -21.0625 -17.1348 -38.1982 -38.1992 -38.1982h-200.298c-4.14258 0 -7.5 3.35645 -7.5 7.5c0 4.14258 3.35742 7.5 7.5 7.5h200.3c12.791 0 23.1982 10.4053 23.1982 23.1973v73.1016c0 4.14258 3.35742 7.5 7.5 7.5zM473.8 320.803
c21.0674 0 38.2002 -17.1396 38.1992 -38.2021v-186.402c0 -4.14355 -3.35742 -7.5 -7.5 -7.5s-7.5 3.35645 -7.5 7.5v75.4258c-16.8994 -26.3096 -46.4219 -43.7764 -79.9473 -43.7764h-130.835v-16.6064c0 -10.752 -8.74805 -19.501 -19.501 -19.501h-21.4307
c-10.752 0 -19.501 8.74805 -19.501 19.501v16.6064h-130.836c-33.5254 0 -63.0479 17.4658 -79.9473 43.7764v-183.529c0 -12.791 10.4062 -23.1973 23.1982 -23.1973h200.299c4.14258 0 7.5 -3.35742 7.5 -7.5c0 -4.14355 -3.35742 -7.5 -7.5 -7.5h-200.299
c-21.0635 0 -38.1992 17.1348 -38.1992 38.1982v294.506c0 21.0625 17.1338 38.2012 38.1992 38.2012h89.3047v21.8262c0 50.4414 41.0352 91.4746 91.4736 91.4746h74.042c50.4404 0 91.4746 -41.0342 91.4746 -91.4746v-21.8262h89.3057zM218.979 419.103
c-42.165 0 -76.4717 -34.3057 -76.4717 -76.4736c0 -11.959 0 -20.7695 0.00195312 -32.8848c0 -3.65918 2.97754 -6.63477 6.63477 -6.63477c2.97266 0 5.49512 1.96484 6.33691 4.66406c0.422852 1.35547 0.298828 -1.05176 0.298828 34.8555
c0 34.8486 28.3516 63.2021 63.2012 63.2021h74.043c34.8477 0 63.2002 -28.3525 63.2002 -63.2021v-32.8848c0 -3.6582 2.97656 -6.63477 6.63574 -6.63477c3.6582 0.000976562 6.63477 2.97656 6.63477 6.63477v32.8848c0 42.168 -34.3057 76.4736 -76.4727 76.4736
h-74.043zM341.221 342.629c0 26.5781 -21.623 48.2012 -48.1992 48.2012h-74.043c-26.5771 0 -48.1992 -21.623 -48.1992 -48.2012v-21.8262h170.441v21.8262zM266.715 106.741c2.43945 0 4.5 2.06055 4.5 4.5c0 36.251 0 18.6016 0 17.8018
c-0.000976562 0.361328 -0.000976562 5.31738 -0.000976562 22.7803c0 3.3457 -2.72168 6.06836 -6.06934 6.06836h-18.292c-3.3457 0 -6.06836 -2.72168 -6.06836 -6.06836v-17.7988v-5.00879v-17.7744c0 -2.43945 2.06055 -4.5 4.5 -4.5h21.4307zM417.052 142.85
c44.083 0 79.9473 35.8643 79.9443 79.9473h-0.00488281v59.8057c0 12.791 -10.4062 23.1982 -23.1982 23.1982h-89.666c-1.99414 -10.4717 -11.0586 -17.6914 -21.2754 -17.6914h-0.000976562c-10.3262 0.00195312 -19.3145 7.34766 -21.2734 17.6914h-171.162
c-1.85352 -10.043 -10.7119 -17.6914 -21.2754 -17.6914h-0.000976562c-10.46 0.00195312 -19.4131 7.54688 -21.2734 17.6914h-89.666c-12.791 0 -23.1982 -10.4062 -23.1982 -23.1982v-59.8057c0 -44.084 35.8643 -79.9482 79.9473 -79.9473h130.835v10.5439
c0 10.7529 8.74805 19.501 19.501 19.501h21.4307c10.7529 0 19.501 -8.74707 19.501 -19.501v-10.5439h130.836z" />
    <glyph glyph-name="uniF10F" unicode="&#xf10f;" 
d="M411.41 80.7705c13.3389 -12.5967 29.2393 -35.2598 29.2402 -71.7051v-64.9639c0 -4.46387 -3.61816 -8.09961 -8.08398 -8.09961h-144.996c-0.0078125 0 -0.015625 -0.00195312 -0.0244141 -0.00195312c-0.0107422 0 -0.0205078 0.00195312 -0.0302734 0.00195312
h-60.8721c-0.00976562 0 -0.0195312 -0.00195312 -0.0302734 -0.00195312c-0.00878906 0 -0.0166016 0.00195312 -0.0253906 0.00195312h-26.6318c-4.46484 0 -8.08398 3.61816 -8.08398 8.08398c0 4.46387 3.61816 8.08398 8.08398 8.08398h16.001l-36.3486 129.759
c-0.00195312 0.00488281 -0.00292969 0.0107422 -0.00390625 0.015625l-5.20898 18.6006l-38.4424 -16.0205c-0.176758 -0.0732422 -0.355469 -0.139648 -0.535156 -0.201172c-1.92969 -0.663086 -47.8984 -17.1621 -47.8984 -75.2578v-56.8936h46.1992v59.8486
c0 4.4668 3.61914 8.08398 8.08398 8.08398c4.46387 0 8.08398 -3.61719 8.08398 -8.08398v-59.8486h26.7754c4.46387 0 8.08398 -3.61914 8.08398 -8.08398c0 -4.46582 -3.61914 -8.08398 -8.08398 -8.08398h-97.2266c-4.46387 0 -8.08398 3.62012 -8.08398 8.08594
v64.9756c0 36.4443 15.8994 59.1084 29.2373 71.7041c13.4727 12.7217 27.042 17.9385 29.3535 18.7676l46.1729 19.2393c0.398438 0.166016 0.80957 0.299805 1.22852 0.400391l33.8682 8.10547v27.0918c-0.322266 0.160156 -0.641602 0.327148 -0.959961 0.492188
c-0.845703 -0.493164 -1.79199 -0.847656 -2.81836 -1.00879c-20.4512 -3.21289 -39.1455 -8.46875 -54.0625 -15.1982c-0.125 -0.0566406 -0.25293 -0.0976562 -0.378906 -0.147461c-0.155273 -0.0625 -0.308594 -0.125977 -0.46582 -0.176758
c-0.311523 -0.101562 -0.626953 -0.178711 -0.943359 -0.239258c-0.155273 -0.0292969 -0.308594 -0.0507812 -0.463867 -0.0732422c-0.273438 -0.0380859 -0.547852 -0.0585938 -0.821289 -0.0673828c-0.0830078 -0.00390625 -0.165039 -0.0214844 -0.24707 -0.0214844
c-0.375977 0 -0.75 0.0351562 -1.12305 0.0869141c-0.0234375 0.00292969 -0.0439453 0.0078125 -0.0664062 0.0117188c-0.349609 0.0527344 -0.692383 0.125977 -1.03223 0.223633c-0.0244141 0.00683594 -0.0478516 0.0126953 -0.0712891 0.0205078
c-1.05273 0.30957 -2.04688 0.833008 -2.91699 1.56738c-0.0419922 0.0371094 -0.0820312 0.0742188 -0.123047 0.109375c-0.227539 0.201172 -0.445312 0.416016 -0.65332 0.646484c-0.0537109 0.0585938 -0.107422 0.117188 -0.161133 0.177734
c-0.0566406 0.0683594 -0.119141 0.12793 -0.175781 0.197266c-27.0674 33.8936 -41.9756 78.1797 -41.9756 124.7c0 100.533 69.6787 182.325 155.324 182.325c35.2236 0 69.708 -14.1992 97.1084 -39.9814
c0.00390625 -0.00488281 0.0107422 -0.00976562 0.0146484 -0.0136719c36.9893 -34.8125 58.2041 -86.6904 58.2041 -142.33c0 -45.5176 -14.3486 -89.0947 -40.4053 -122.705c-0.275391 -0.357422 -0.583008 -0.672852 -0.902344 -0.96875
c-1.4707 -2.55469 -4.16602 -4.05859 -6.99219 -4.05859c-1.11133 0 -2.24023 0.231445 -3.31934 0.716797c-14.7402 6.65039 -33.1914 11.8672 -53.3594 15.0859c-1.19336 0.191406 -2.2793 0.640625 -3.22168 1.27344
c-0.463867 -0.242188 -0.925781 -0.482422 -1.39355 -0.714844v-27.0977l31.9395 -8.05176c0.387695 -0.0966797 0.765625 -0.222656 1.13477 -0.376953l46.1729 -19.2393c2.31348 -0.829102 15.8828 -6.04492 29.3535 -18.7676zM152.644 155.923
c11.6699 4.7207 25.041 8.64453 39.4219 11.585c-14.2607 13.0029 -24.0371 30.8291 -26.7656 50.8652c-19.7139 1.60449 -35.2676 18.1484 -35.2676 38.2686c0 19.8535 15.1406 36.2383 34.4824 38.2119c0.0625 3.625 2.52441 6.77637 6.04395 7.68945
c0.484375 0.125977 49.3008 13.1377 80.7285 45.3945c1.67285 1.71875 4.02344 2.60254 6.41309 2.41895c2.3916 -0.18457 4.57617 -1.42188 5.96484 -3.37598c0.222656 -0.306641 24.4473 -33.1162 79.5186 -44.3418c3.7207 -0.758789 6.39941 -4.00293 6.46289 -7.78711
c19.3379 -1.97656 34.4756 -18.3584 34.4756 -38.2109c0 -20.1182 -15.5518 -36.6631 -35.2656 -38.2686c-2.72852 -20.0342 -12.5029 -37.8604 -26.7617 -50.8623c14.3789 -2.93848 27.7549 -6.86719 39.4248 -11.5879c22.4131 30.3633 34.7148 69.1758 34.7148 109.754
c0 51.1982 -19.3613 98.7842 -53.1172 130.556c-24.7441 23.29 -54.4961 35.6006 -86.041 35.6006c-76.7295 0 -139.156 -74.5381 -139.154 -166.158c0 -40.668 12.2939 -79.3809 34.7217 -109.751zM349.653 234.771c10.3877 1.86621 18.3018 10.9521 18.3018 21.8682
c0 10.9189 -7.91406 20.0049 -18.3018 21.873v-43.7412zM164.503 278.514c-10.3887 -1.86719 -18.3027 -10.9531 -18.3027 -21.874c0 -10.917 7.91406 -20.0029 18.3027 -21.8691v43.7432zM180.671 229.801c0 -37.5723 30.5674 -68.1396 68.1396 -68.1406h16.5371
c37.5703 0 68.1367 30.5684 68.1367 68.1406v58.4297c-41.9473 10.0771 -66.4941 31.208 -76.9795 42.2939c-27.3633 -24.7812 -61.9883 -37.4844 -75.834 -41.8574v-58.8662zM189.789 105.533l4.57617 -16.3379c5.14355 -3.13281 18.6064 -10.5156 37.1172 -14.5732
c30.5244 -6.69238 60.2324 -1.73926 88.3477 14.7158l4.42285 15.79l-31.5039 7.93945c-3.59082 0.904297 -6.10742 4.13281 -6.10742 7.83789v27.3174c-6.80469 -1.77734 -13.9404 -2.72949 -21.293 -2.72949h-16.5371c-7.40527 0 -14.5859 0.96875 -21.4326 2.76953
v-27.3574c0 -3.73926 -2.56543 -6.99023 -6.20215 -7.86133zM281.409 -47.8271l32.4629 115.896c-20.4805 -9.28027 -39.8271 -12.4189 -56.6123 -12.4189c-11.2891 0 -21.418 1.41699 -29.958 3.33594c-10.6748 2.39746 -19.8037 5.74023 -26.9756 8.92578
l32.4199 -115.739h48.6631zM424.481 -47.8281h-0.000976562v56.8945c0 58.0957 -45.9727 74.5947 -47.9277 75.2686c-0.162109 0.0556641 -0.351562 0.125977 -0.507812 0.191406l-36.5107 15.2139l-41.3359 -147.568h63.9141v59.8486
c0 4.4668 3.61816 8.08398 8.08398 8.08398s8.08398 -3.61719 8.08398 -8.08398v-59.8486h46.2012zM255.59 218.232c-4.46582 0 -8.08398 3.61914 -8.08398 8.08398v26.2695c0 4.4668 3.61816 8.08398 8.08398 8.08398s8.08398 -3.61719 8.08398 -8.08398v-18.1855h5.68652
c4.46582 0 8.08398 -3.61914 8.08398 -8.08398s-3.61816 -8.08398 -8.08398 -8.08398h-13.7705z" />
    <glyph glyph-name="uniF11B" unicode="&#xf11b;" 
d="M35.9121 133.504c0 -2.12988 1.73633 -3.86719 3.8584 -3.86719h312.574v-35.9121h-60.8809v-51.5518h20.0244c9.92383 0 17.9561 -8.03906 17.9561 -17.9561c0 -9.91504 -8.03125 -17.9551 -17.9561 -17.9551h-164.81c-9.92285 0 -17.9551 8.04004 -17.9551 17.9551
c0 9.91699 8.03125 17.9561 17.9551 17.9561h20.0068v51.5518h-126.915c-21.9365 0 -39.7705 17.8418 -39.7705 39.7793v256.945c0 21.9365 17.834 39.7793 39.7705 39.7783h378.629c21.9365 0 39.7686 -17.8418 39.7686 -39.7783v-195.338h-35.9121v195.338
c0 2.13086 -1.7334 3.86621 -3.85645 3.86621h-378.629c-2.12305 0 -3.8584 -1.73535 -3.8584 -3.86621v-256.945zM489.082 172.667c12.6426 0 22.918 -10.2822 22.9189 -22.9258v-173.042c0 -12.6436 -10.2764 -22.9277 -22.9189 -22.9277h-91.373
c-12.6416 0 -22.9189 10.2822 -22.9189 22.9277v173.042c0 12.6416 10.2773 22.9258 22.9189 22.9258h91.373zM401.725 145.734v-150.248h83.3428v150.248h-83.3428zM443.387 -34.0332c1.68359 0 3.19043 0.526367 4.59473 1.26172
c3.15527 1.67578 5.36523 4.88477 5.36523 8.69824c0 5.49609 -4.45508 9.95117 -9.95996 9.95117c-5.48926 0 -9.94238 -4.45508 -9.94238 -9.95117c0 -3.81348 2.22754 -7.02246 5.36621 -8.69824c1.38574 -0.735352 2.89355 -1.26172 4.57617 -1.26172z" />
    <glyph glyph-name="uniF108" unicode="&#xf108;" 
d="M317.724 202.062c37.9385 0 68.8066 -30.8672 68.8076 -68.8057v-62.1973h-257.849v62.1973c0 37.9385 30.8662 68.8057 68.8066 68.8057h120.234zM264.729 178.485v0h-14.2461l7.12305 -10.2383zM152.259 133.255v-38.6191h54.127l36.8574 52.9697l-21.4854 30.8789
h-24.2705c-24.9395 0 -45.2285 -20.2891 -45.2285 -45.2295zM257.606 126.966l-22.4961 -32.3301h44.9922zM362.952 94.6357v0v38.6211c0 24.9385 -20.2881 45.2285 -45.2285 45.2285h-24.2705l-21.4854 -30.8779l36.8574 -52.9717h54.127zM257.606 207.605
c-38.1494 0 -69.1865 31.0352 -69.1865 69.1865c0 38.1475 31.0371 69.1846 69.1865 69.1846s69.1865 -31.0352 69.1865 -69.1846c0 -38.1504 -31.0371 -69.1865 -69.1865 -69.1865zM257.606 322.397c-25.1494 0 -45.6094 -20.458 -45.6094 -45.6074
s20.46 -45.6094 45.6094 -45.6094s45.6094 20.46 45.6094 45.6094c0 25.1475 -20.46 45.6074 -45.6094 45.6074zM512 366.103v0h-23.5752v41.6484l-76.4453 -76.4453c33.9834 -37.1992 54.7432 -86.6748 54.7432 -140.912c0 -53.4199 -20.1465 -102.217 -53.2256 -139.219
l74.9258 -74.9258v41.6484h23.5771v-81.8975h-81.8975v23.5771h41.6484l-74.9258 74.9258c-37.001 -33.0791 -85.7979 -53.2236 -139.219 -53.2236c-54.2373 0 -103.713 20.7588 -140.912 54.7432l-76.4453 -76.4453h41.6484v-23.5771h-81.8975v81.8975h23.5771v-41.6484
l76.6289 76.626c-32.1826 36.79 -51.7139 84.915 -51.7139 137.519c0 53.4209 20.1445 102.217 53.2227 139.219l-78.1377 78.1387v-41.6484h-23.5771v81.8975h81.8975v-23.5771h-41.6484l78.1367 -78.1377c37.002 33.0801 85.7998 53.2246 139.219 53.2246
c52.6055 0 100.729 -19.5312 137.519 -51.7148l76.6279 76.6279h-41.6484v23.5771h81.8975v-81.8975zM257.606 4.85645c102.307 0 185.539 83.2305 185.539 185.537s-83.2324 185.539 -185.539 185.539s-185.537 -83.2314 -185.537 -185.537
c0 -102.307 83.2305 -185.539 185.537 -185.539z" />
    <glyph glyph-name="uniF103" unicode="&#xf103;" 
d="M363.197 251.277c83.9473 -7.51172 148.803 -56.4258 148.803 -115.79c0 -64.542 -76.6787 -116.881 -171.247 -116.881c-17.7109 0 -34.8311 1.83496 -50.9033 5.22949l-37.3105 -36.5029c-2.4834 -2.44922 -6.16211 -3.26074 -9.4375 -2.13379
c-3.31055 1.17676 -5.66211 4.07227 -6.1084 7.54785l-6.83594 53.5693c-37.0801 21.4346 -60.6689 53.418 -60.6689 89.1709c0 1.57422 0.251953 3.08008 0.348633 4.63281c0.478516 0 0.926758 -0.0458984 1.41016 -0.0458984c14.3623 0 28.6191 1.09082 42.5254 3.27539
l27.9053 -27.2979c6.43945 -6.33594 15.0635 -9.87891 24.2178 -9.87891c3.8418 0 7.63281 0.62793 11.2578 1.87207c12.6465 4.4834 21.3906 15.3242 23.0605 28.3516l5.31152 41.6309c29.3154 19.668 49.1816 45.1758 57.6719 73.25zM340.753 112.926
c12.4834 0 22.5625 10.0957 22.5625 22.5967c0 12.4629 -10.0791 22.5791 -22.5625 22.5791c-12.501 0 -22.6113 -10.1172 -22.6113 -22.5791c0 -12.501 10.1104 -22.5967 22.6113 -22.5967zM405.842 112.926c12.4629 0 22.5928 10.0957 22.5918 22.5967
c0 12.4629 -10.1299 22.5791 -22.5918 22.5791c-12.498 0 -22.5967 -10.1172 -22.5967 -22.5791c0 -12.501 10.0986 -22.5967 22.5967 -22.5967zM222.146 170.73c-16.0713 -3.39453 -33.1865 -5.22949 -50.8984 -5.22949c-94.5713 0 -171.247 52.3438 -171.247 116.882
c0 64.5781 76.6758 116.917 171.247 116.918c94.582 0 171.261 -52.3389 171.261 -116.917c0 -35.7539 -23.5898 -67.7373 -60.6689 -89.1729l-6.83594 -53.5664c-0.446289 -3.47754 -2.7959 -6.37305 -6.1084 -7.55078
c-0.977539 -0.330078 -1.98535 -0.494141 -2.99902 -0.494141c-2.36621 0 -4.7002 0.911133 -6.43848 2.63281zM236.335 304.995c-12.4844 0 -22.582 -10.1104 -22.583 -22.5771c0 -12.4971 10.0986 -22.5977 22.583 -22.5977c12.4961 0 22.6064 10.1006 22.6064 22.5977
c0 12.4668 -10.1094 22.5771 -22.6064 22.5771zM106.153 259.82c12.5029 0 22.5977 10.1006 22.5977 22.5977c0 12.4668 -10.0947 22.5771 -22.5977 22.5771c-12.4609 0 -22.5918 -10.1104 -22.5918 -22.5771c0 -12.4971 10.1309 -22.5977 22.5918 -22.5977zM148.68 282.418
c0 -12.4971 10.085 -22.5977 22.5674 -22.5977c12.4961 0 22.6074 10.1006 22.6074 22.5977c0 12.4668 -10.1113 22.5771 -22.6074 22.5771c-12.4824 0 -22.5674 -10.1104 -22.5674 -22.5771z" />
    <glyph glyph-name="uniF115" unicode="&#xf115;" 
d="M512 357h-30v-182.763c17.4219 -6.21289 30 -22.707 30 -42.2373c0 -24.8145 -20.1855 -45 -45 -45s-45 20.1855 -45 45c0 19.5303 12.5781 36.0244 30 42.2373v182.763h-35.7266l-15 -30h-289.546l-15 30h-96.7275v30h241v30h30v-30h241v-30zM504.2 67.2695
c4.91211 -7.20996 7.7998 -15.9053 7.7998 -25.2695v-75h-90v75c0 9.36426 2.88672 18.0586 7.7998 25.2695c11.0098 -6.35254 23.6035 -10.2695 37.2002 -10.2695s26.1904 3.91699 37.2002 10.2695zM397.812 297l27.2207 -81.665l-169.032 -100.825l-168.032 100.825
l27.2207 81.665h282.623z" />
    <glyph glyph-name="uniF104" unicode="&#xf104;" 
d="M153.618 324.92c-3.30176 0.740234 -5.54883 3.8418 -5.19531 7.20312c4.76172 45.7236 37.334 83.2383 78.8027 95.1426v7.92969c0 3.68164 2.98828 6.66895 6.66895 6.66895c3.68164 0 6.66992 -2.9873 6.66992 -6.66895v-5.1084
c4.79492 0.700195 9.63672 1.17969 14.5723 1.17969c4.94824 0 9.80371 -0.479492 14.6055 -1.18652v5.11523c0 3.68164 2.9873 6.66895 6.66895 6.66895s6.66895 -2.9873 6.66895 -6.66895v-7.93652c41.4824 -11.9111 74.041 -49.4189 78.8096 -95.1357
c0.353516 -3.42188 -1.94727 -6.54883 -5.32129 -7.22949c-33.1533 -7.41602 -67.3125 -11.1846 -101.412 -11.1846s-68.2588 3.77539 -101.538 11.2109zM227.226 413.287c-32.8652 -10.9443 -58.7217 -40.4092 -64.7441 -76.6357
c61.0898 -12.7783 124.507 -12.7383 185.337 0c-6.01562 36.2334 -31.8789 65.7051 -64.7383 76.6426v-20.6553c0 -3.68066 -2.9873 -6.66895 -6.66895 -6.66895s-6.66895 2.98828 -6.66895 6.66895v24.0029c-4.77539 0.799805 -9.63086 1.29395 -14.5723 1.29395
c-4.95508 0 -9.82422 -0.494141 -14.6055 -1.30078v-24.002c0 -3.68164 -2.98828 -6.66992 -6.66992 -6.66992c-3.68066 0 -6.66895 2.98828 -6.66895 6.66992v20.6543zM296.445 343.914c-13.5254 -3.02832 -27.4238 -4.56152 -41.2959 -4.56152
c-13.8584 0 -27.75 1.5332 -41.2891 4.56152c-3.59473 0.806641 -5.85547 4.36816 -5.05469 7.96289c0.806641 3.59473 4.39453 5.84277 7.95605 5.05566c25.21 -5.62891 51.6465 -5.62207 76.7754 0c3.60156 0.792969 7.15625 -1.46094 7.96387 -5.05566
c0.806641 -3.59473 -1.46094 -7.15625 -5.05566 -7.96289zM143.941 294.782c0.125977 4.32812 0.512695 17.5068 9.96973 21.0742c9.34375 3.52148 18.8809 -5.96875 20.6943 -7.90918c2.51465 -2.69434 2.375 -6.91602 -0.313477 -9.43066
c-2.69434 -2.50781 -6.91504 -2.37402 -9.42969 0.313477c-1.84766 1.9541 -4.61523 3.9082 -6.08887 4.3623c-0.454102 -0.860352 -1.33398 -3.23535 -1.50098 -8.81055c-0.679688 -23.1484 17.2598 -29.3906 17.4404 -29.458
c2.10742 -0.700195 3.72754 -2.40723 4.32129 -4.54785l0.287109 -1.04688c0.113281 -0.400391 0.179688 -0.814453 0.219727 -1.22754c5.10156 -60.7959 53.1465 -80.4639 75.6152 -80.4639s70.5137 19.668 75.6152 80.4639
c0.0332031 0.407227 0.106445 0.813477 0.213867 1.20703l0.286133 1.04688c0.586914 2.14746 2.21484 3.86133 4.32227 4.56836c0.693359 0.24707 18.1064 6.62988 17.4395 29.458c-0.160156 5.56934 -1.04004 7.93652 -1.49414 8.80371
c-1.48047 -0.466797 -4.32812 -2.47461 -6.0957 -4.3623c-2.51367 -2.69434 -6.73535 -2.82715 -9.42969 -0.313477c-2.69434 2.51465 -2.82812 6.73633 -0.313477 9.43066c1.80762 1.94727 11.3242 11.4443 20.6943 7.91016
c9.45703 -3.5752 9.84375 -16.7471 9.9707 -21.0752c0.679688 -23.0215 -12.8184 -35.833 -22.5957 -40.8154c-6.66211 -61.8037 -55.4678 -89.6475 -88.6133 -89.6475c-33.1523 0 -81.957 27.8379 -88.6133 89.6406c-9.77734 4.99512 -23.2822 17.8066 -22.6016 40.8291z
M265.347 296.069h52.5732c1.78711 0 3.50098 -0.720703 4.75488 -1.99414s1.94141 -3.00098 1.91406 -4.78809c-0.113281 -6.23633 -1.18652 -27.1504 -10.3506 -34.6006c-5.85547 -4.75488 -14.9922 -7.70898 -23.8486 -7.70898
c-8.46289 0 -15.5723 2.68066 -20.0205 7.5498c-4.80859 5.26855 -8.00977 16.3193 -9.83789 24.5293h-10.7568c-1.82715 -8.20996 -5.02832 -19.2607 -9.83691 -24.5293c-4.44238 -4.86914 -11.5449 -7.5498 -20.0146 -7.5498c-8.86328 0 -18 2.9541 -23.8486 7.70898
c-9.16992 7.4502 -10.2373 28.3643 -10.3506 34.6006c-0.0263672 1.78711 0.660156 3.51465 1.91406 4.78809s2.96777 1.99414 4.75488 1.99414h52.5664c1.94727 0 3.79492 -0.853516 5.0625 -2.32715c0.339844 -0.400391 0.493164 -0.894531 0.726562 -1.35449h8.80957
c0.233398 0.459961 0.386719 0.954102 0.727539 1.35449c1.2666 1.48047 3.11426 2.32715 5.06152 2.32715zM230.087 263.517c2.50781 2.74805 5.10156 11.3916 6.8291 19.2207h-37.4277c0.820312 -7.94238 2.70117 -15.832 5.00195 -17.7002
c3.47461 -2.82715 9.67773 -4.72168 15.4326 -4.72168c4.60156 0 8.30371 1.16113 10.1641 3.20117zM305.822 265.031c2.30078 1.87402 4.18164 9.75684 5.00195 17.6934h-37.4277c1.7207 -7.81641 4.32129 -16.46 6.82227 -19.208
c1.86133 -2.04004 5.56934 -3.20703 10.1709 -3.20703c5.75586 0 11.958 1.90039 15.4326 4.72168zM471.911 161.945c-66.4512 -21.7217 -135.471 -33.293 -205.384 -34.4268v-160.667c0 -3.68164 -2.98828 -6.66895 -6.66895 -6.66895
c-3.68164 0 -6.66992 2.9873 -6.66992 6.66895v136.525c-50.8184 0.125977 -101.197 5.80859 -150.55 16.8789c-0.526367 0.046875 -1.04688 0.160156 -1.56055 0.34082c-21.001 4.76172 -41.8428 10.3906 -62.417 17.1064l3.75488 -51.5869
c0.266602 -3.67383 -2.49414 -6.86914 -6.16895 -7.13574c-0.166992 -0.00683594 -0.327148 -0.0126953 -0.493164 -0.0126953c-3.46875 0 -6.38965 2.67383 -6.64941 6.18164l-4.47559 61.5703c-0.15918 2.23438 0.807617 4.40137 2.58105 5.76855
c1.77441 1.37402 4.11523 1.75391 6.22949 1.02734c21.9814 -7.5293 44.29 -13.7656 66.792 -19.001c14.1855 22.5752 37.2275 39.7148 68.6523 51.0264l-0.413086 6.97559c-0.220703 3.6748 2.58691 6.8291 6.26172 7.0498
c3.6416 0.320312 6.83594 -2.58105 7.0498 -6.2627l1.71387 -28.8906l19.9277 7.13574c3.4873 1.24023 7.28906 -0.560547 8.5293 -4.02832s-0.55957 -7.28906 -4.02832 -8.5293l-28.3105 -10.1445c-0.733398 -0.259766 -1.49414 -0.393555 -2.24707 -0.393555
c-1.28711 0 -2.57422 0.374023 -3.6748 1.10742c-1.75391 1.16016 -2.85449 3.07422 -2.98145 5.16895l-1 16.8926c-25.1162 -9.59668 -43.5303 -22.8281 -55.7148 -40.2617c45.7041 -9.64355 92.2754 -14.5117 139.199 -14.6455v17.3867
c0 3.66797 2.95508 6.64258 6.62305 6.66895c39.3877 0.266602 78.4824 4.01465 117.018 10.9775c-9.72363 7.7959 -21.8086 14.6387 -35.3672 19.9346l-1.00684 -16.9531c-0.126953 -2.09473 -1.22754 -4.01465 -2.98145 -5.16895
c-1.10645 -0.726562 -2.3877 -1.10742 -3.6748 -1.10742c-0.759766 0 -1.52051 0.133789 -2.24707 0.393555l-28.3037 10.1445c-3.46875 1.24023 -5.26855 5.06152 -4.02832 8.5293s5.03516 5.28223 8.5293 4.02832l19.9209 -7.13574l1.71387 28.8906
c0.213867 3.68164 3.36133 6.57617 7.0498 6.2627c3.6748 -0.220703 6.48242 -3.375 6.2627 -7.0498l-0.414062 -6.93555c20.4541 -7.42969 38.3145 -18.1602 51.0332 -30.6719c28.2305 5.82227 56.1279 13.3789 83.5576 22.7686
c2.08789 0.707031 4.40137 0.34668 6.16211 -0.973633c1.76758 -1.32715 2.76172 -3.44141 2.6543 -5.64844l-4.23438 -89.5869c-0.173828 -3.68164 -3.26172 -6.49609 -6.97656 -6.34961c-3.68066 0.173828 -6.52246 3.30176 -6.34863 6.97559zM504.137 58.3125
c7.96973 -8.00977 7.90332 -19.2471 7.84961 -29.1641l-0.00585938 -46.2842c0 -20.041 -16.3066 -36.3467 -36.3477 -36.3467s-36.3467 16.3057 -36.3467 36.3467l-0.00683594 46.2842c-0.0537109 9.91699 -0.113281 21.1543 7.84961 29.1641
c5.94922 5.98242 15.2793 8.89746 28.5039 8.89746c13.2256 0 22.5488 -2.91504 28.5039 -8.89746zM498.655 29.2217c0.0400391 8.03027 0.0800781 15.6123 -3.97559 19.6807c-3.27441 3.30176 -9.68359 4.96875 -19.0469 4.96875s-15.7725 -1.67383 -19.0469 -4.96875
c-2.70801 -2.7207 -3.5752 -7.0293 -3.84863 -11.9707h15.5059c3.68164 0 6.66992 -2.98828 6.66992 -6.66895c0 -3.68164 -2.98828 -6.66992 -6.66992 -6.66992h-15.626v-12.1445h15.626c3.68164 0 6.66992 -2.9873 6.66992 -6.66895s-2.98828 -6.66895 -6.66992 -6.66895
h-15.6191v-11.2578h15.6191c3.68164 0 6.66992 -2.98828 6.66992 -6.66895c0 -3.68164 -2.98828 -6.66895 -6.66992 -6.66895h-13.585c3.60156 -8.03027 11.6309 -13.6592 20.9814 -13.6592c12.6846 0 23.0088 10.3242 23.0088 23.0088zM38.7949 71.5977
c14.1514 0 24.1152 -3.09473 30.4375 -9.46289c8.46387 -8.49707 8.39648 -20.5352 8.33691 -31.1523l-0.00683594 -50.0723c0 -21.3809 -17.3936 -38.7744 -38.7744 -38.7744c-21.3818 0 -38.7744 17.3936 -38.7744 38.7744l-0.00683594 50.0654
c-0.0537109 10.6172 -0.120117 22.6553 8.33594 31.1592c6.33594 6.36816 16.293 9.46289 30.4521 9.46289zM38.7949 -44.5264c10.6367 0 19.7402 6.57617 23.5283 15.8594h-15.5322c-3.68164 0 -6.66895 2.98828 -6.66895 6.66992
c0 3.68066 2.9873 6.66895 6.66895 6.66895h17.4395v13.2715h-17.4395c-3.68164 0 -6.66895 2.98828 -6.66895 6.66895c0 3.68164 2.9873 6.66992 6.66895 6.66992h17.4463v14.2314h-17.4463c-3.68164 0 -6.66895 2.98828 -6.66895 6.66895
c0 3.68164 2.9873 6.66992 6.66895 6.66992h17.3467c-0.266602 5.70215 -1.1875 10.7041 -4.34863 13.8779c-3.64746 3.6748 -10.7109 5.53613 -20.9941 5.53613c-10.2842 0 -17.3467 -1.86816 -20.9951 -5.53613c-4.54102 -4.56836 -4.49512 -12.8848 -4.44824 -21.6816
l0.00683594 -50.1387c0 -14.0254 11.4111 -25.4365 25.4365 -25.4365z" />
  </font>
</defs></svg>
